Item Title,Publication Title,Book Series Title,Journal Volume,Journal Issue,Item DOI,Authors,Publication Year,URL,Content Type
"BDI Planning Approach to Distributed Multiagent Based Semantic Search Engine","Distributed Computing, Artificial Intelligence, Bioinformatics, Soft Computing, and Ambient Assisted Living","","","","10.1007/978-3-642-02481-8_4","Mehta ShikhaBanati HemaBedi Punam","2009","http://link.springer.com/chapter/10.1007/978-3-642-02481-8_4","Chapter"
"Mixed Narrative and Dialog Content Planning Based on BDI Agents","Current Topics in Artificial Intelligence","","","","10.1007/978-3-540-75271-4_16","Carlos LeónSamer HassanPablo GervásJuan Pavón","2007","http://link.springer.com/chapter/10.1007/978-3-540-75271-4_16","Chapter"
"A Comparison of BDI Based Real-Time Reasoning and HTN Based Planning","AI 2004: Advances in Artificial Intelligence","","","","10.1007/978-3-540-30549-1_118","Lavindra de SilvaLin Padgham","2005","http://link.springer.com/chapter/10.1007/978-3-540-30549-1_118","Chapter"
"BDI Agents Using Neural Network and Adaptive Neuro Fuzzy Inference for Intelligent Planning in Container Terminals","Neural Information Processing","","","","10.1007/978-3-540-30499-9_145","Prasanna LokugeDamminda Alahakoon","2004","http://link.springer.com/chapter/10.1007/978-3-540-30499-9_145","Chapter"
"A BDI agent programming language with failure handling, declarative goals, and planning","Autonomous Agents and Multi-Agent Systems","","23","1","10.1007/s10458-010-9130-9","Sebastian SardinaLin Padgham","2011","http://link.springer.com/article/10.1007/s10458-010-9130-9","Article"
"Augmenting BDI Agents with Deliberative Planning Techniques","Programming Multi-Agent Systems","","","","10.1007/978-3-540-71956-4_7","Andrzej WalczakLars BraubachAlexander PokahrWinfried Lamersdorf","2007","http://link.springer.com/chapter/10.1007/978-3-540-71956-4_7","Chapter"
"A Hybrid POMDP-BDI Agent Architecture with Online Stochastic Planning and Desires with Changing Intensity Levels","Agents and Artificial Intelligence","","","","10.1007/978-3-319-27947-3_1","Gavin RensThomas Meyer","2015","http://link.springer.com/chapter/10.1007/978-3-319-27947-3_1","Chapter"
"ASP-Driven BDI-Planning Agents in Virtual 3D Environments","Multiagent System Technologies","","","","10.1007/978-3-319-45889-2_15","André AntakliIngo ZinnikusMatthias Klusch","2016","http://link.springer.com/chapter/10.1007/978-3-319-45889-2_15","Chapter"
"BDI Logics for BDI Architectures: Old Problems, New Perspectives","KI - Künstliche Intelligenz","","31","1","10.1007/s13218-016-0457-5","Andreas HerzigEmiliano LoriniLaurent PerrusselZhanhao Xiao","2017","http://link.springer.com/article/10.1007/s13218-016-0457-5","Article"
"Improving the Contextual Selection of BDI Plans by Incorporating Situated Experiments","Artificial Intelligence Applications and Innovations","","","","10.1007/978-3-319-23868-5_19","Ahmed-Chawki ChaoucheAmal El Fallah SeghrouchniJean-Michel IliéDjamel Eddine Saïdouni","2015","http://link.springer.com/chapter/10.1007/978-3-319-23868-5_19","Chapter"
"HAPBA - A BDI Agent Based Solution for Holonic Manufacturing Execution Systems","Service Orientation in Holonic and Multi Agent Manufacturing and Robotics","","","","10.1007/978-3-642-35852-4_4","Carlos PascalDoru Panescu","2013","http://link.springer.com/chapter/10.1007/978-3-642-35852-4_4","Chapter"
"CAMP-BDI: A Pre-emptive Approach for Plan Execution Robustness in Multiagent Systems","PRIMA 2015: Principles and Practice of Multi-Agent Systems","","","","10.1007/978-3-319-25524-8_5","Alan WhiteAustin TateMichael Rovatsos","2015","http://link.springer.com/chapter/10.1007/978-3-319-25524-8_5","Chapter"
"BDI Design Principles and Cooperative Implementation in RoboCup","RoboCup-99: Robot Soccer World Cup III","","","","10.1007/3-540-45327-X_45","Jan WendlerMarkus HannebauerHans-Dieter BurkhardHelmut MyritzGerd SanderThomas Meinert","2000","http://link.springer.com/chapter/10.1007/3-540-45327-X_45","Chapter"
"A pragmatic BDI architecture","Intelligent Agents II Agent Theories, Architectures, and Languages","","","","10.1007/3540608052_68","Klaus FischerJörg P. MüllerMarkus Pischel","1996","http://link.springer.com/chapter/10.1007/3540608052_68","Chapter"
"BDI Agents: Flexibility, Personalization, and Adaptation for Web-Based Support Systems","Intelligent Agents in the Evolution of Web and Applications","","","","10.1007/978-3-540-88071-4_9","Maria FasliBotond Virginas","2009","http://link.springer.com/chapter/10.1007/978-3-540-88071-4_9","Chapter"
"On Partially Observable MDPs and BDI Models","Foundations and Applications of Multi-Agent Systems","","","","10.1007/3-540-45634-1_15","Martijn SchutMichael WooldridgeSimon Parsons","2002","http://link.springer.com/chapter/10.1007/3-540-45634-1_15","Chapter"
"KGBot: A BDI Agent Deploying within a Complex 3D Virtual Environment","Intelligent Virtual Agents","","","","10.1007/978-3-540-39396-2_31","In-Cheol Kim","2003","http://link.springer.com/chapter/10.1007/978-3-540-39396-2_31","Chapter"
"Constructing a BDI Agent to Deploy in an Interactive Computer Game Environment","Artificial Intelligence: Methodology, Systems, and Applications","","","","10.1007/978-3-540-30106-6_39","In-Cheol Kim","2004","http://link.springer.com/chapter/10.1007/978-3-540-30106-6_39","Chapter"
"Reasoning About Time in a BDI Architecture","Knowledge-Based Intelligent Information and Engineering Systems","","","","10.1007/11552451_117","Bevan JarvisDan CorbettLakhmi C. Jain","2005","http://link.springer.com/chapter/10.1007/11552451_117","Chapter"
"Development of CBR-BDI Agents: A Tourist Guide Application","Advances in Case-Based Reasoning","","","","10.1007/978-3-540-28631-8_40","Juan M. CorchadoJuan PavónEmilio S. CorchadoLuis F. Castillo","2004","http://link.springer.com/chapter/10.1007/978-3-540-28631-8_40","Chapter"
"Enhanced Deliberation in BDI-Modelled Agents","Advances in Practical Applications of Agents and Multiagent Systems","","","","10.1007/978-3-642-12384-9_8","Fernando KochFrank Dignum","2010","http://link.springer.com/chapter/10.1007/978-3-642-12384-9_8","Chapter"
"An operational semantics for the goal life-cycle in BDI agents","Autonomous Agents and Multi-Agent Systems","","28","4","10.1007/s10458-013-9238-9","James HarlandDavid N. MorleyJohn ThangarajahNeil Yorke-Smith","2014","http://link.springer.com/article/10.1007/s10458-013-9238-9","Article"
"Preference-based reasoning in BDI agent systems","Autonomous Agents and Multi-Agent Systems","","30","2","10.1007/s10458-015-9288-2","Simeon VisserJohn ThangarajahJames HarlandFrank Dignum","2016","http://link.springer.com/article/10.1007/s10458-015-9288-2","Article"
"Golog Speaks the BDI Language","Programming Multi-Agent Systems","","","","10.1007/978-3-642-14843-9_6","Sebastian SardinaYves Lespérance","2010","http://link.springer.com/chapter/10.1007/978-3-642-14843-9_6","Chapter"
"BDI Model-Based Crowd Simulation","Intelligent Virtual Agents","","","","10.1007/978-3-540-85483-8_37","Kenta ChoNaoki IketaniMasaaki KikuchiKeisuke NishimuraHisashi HayashiMasanori Hattori","2008","http://link.springer.com/chapter/10.1007/978-3-540-85483-8_37","Chapter"
"Logical Foundations for a Rational BDI Agent Programming Language (Extended Version)","Programming Multi-Agent Systems","","","","10.1007/978-3-642-31915-0_1","Shakil M. KhanYves Lespérance","2012","http://link.springer.com/chapter/10.1007/978-3-642-31915-0_1","Chapter"
"Aborting, suspending, and resuming goals and plans in BDI agents","Autonomous Agents and Multi-Agent Systems","","31","2","10.1007/s10458-015-9322-4","James HarlandDavid N. MorleyJohn ThangarajahNeil Yorke-Smith","2017","http://link.springer.com/article/10.1007/s10458-015-9322-4","Article"
"Improving domain-independent intention selection in BDI systems","Autonomous Agents and Multi-Agent Systems","","29","4","10.1007/s10458-015-9293-5","Max WatersLin PadghamSebastian Sardina","2015","http://link.springer.com/article/10.1007/s10458-015-9293-5","Article"
"Revisiting Character-Based Affective Storytelling under a Narrative BDI Framework","Interactive Storytelling","","","","10.1007/978-3-540-89454-4_13","Federico PeinadoMarc CavazzaDavid Pizzi","2008","http://link.springer.com/chapter/10.1007/978-3-540-89454-4_13","Chapter"
"BDI Agents with Objectives and Preferences","Declarative Agent Languages and Technologies VIII","","","","10.1007/978-3-642-20715-0_2","Aniruddha DasguptaAditya K. Ghose","2011","http://link.springer.com/chapter/10.1007/978-3-642-20715-0_2","Chapter"
"Plan Acquisition in a BDI Agent Framework Through Intentional Learning","Multiagent System Technologies","","","","10.1007/978-3-319-64798-2_11","Wulfrano Arturo Luna RamirezMaria Fasli","2017","http://link.springer.com/chapter/10.1007/978-3-319-64798-2_11","Chapter"
"Integrating BDI Agents with Agent-Based Simulation Platforms","Autonomous Agents and Multi-Agent Systems","","30","6","10.1007/s10458-016-9332-x","Dhirendra SinghLin PadghamBrian Logan","2016","http://link.springer.com/article/10.1007/s10458-016-9332-x","Article"
"Introducing Relevance Awareness in BDI Agents","Programming Multi-Agent Systems","","","","10.1007/978-3-642-14843-9_14","Emiliano LoriniMichele Piunti","2010","http://link.springer.com/chapter/10.1007/978-3-642-14843-9_14","Chapter"
"Operational Behaviour for Executing, Suspending, and Aborting Goals in BDI Agent Systems","Declarative Agent Languages and Technologies VIII","","","","10.1007/978-3-642-20715-0_1","John ThangarajahJames HarlandDavid MorleyNeil Yorke-Smith","2011","http://link.springer.com/chapter/10.1007/978-3-642-20715-0_1","Chapter"
"A BDI Agent Approach to Healthcare Web Services","World Congress on Medical Physics and Biomedical Engineering 2006","","","","10.1007/978-3-540-36841-0_101","Hoon JinIn-Cheol Kim","2007","http://link.springer.com/chapter/10.1007/978-3-540-36841-0_101","Chapter"
"On the Use of Agreement Technologies for Multi-criteria Decision Making within a BDI Agent","Advances in Artificial Intelligence -- IBERAMIA 2014","","","","10.1007/978-3-319-12027-0_5","Cecilia Sosa ToranzoMarcelo ErrecaldeEdgardo Ferretti","2014","http://link.springer.com/chapter/10.1007/978-3-319-12027-0_5","Chapter"
"Coordinating Teams in Uncertain Environments: A Hybrid BDI-POMDP Approach","Programming Multi-Agent Systems","","","","10.1007/978-3-540-32260-3_1","Ranjit NairMilind Tambe","2005","http://link.springer.com/chapter/10.1007/978-3-540-32260-3_1","Chapter"
"A logic of intention and action for regular BDI agents based on bisimulation of agent programs","Autonomous Agents and Multi-Agent Systems","","29","4","10.1007/s10458-014-9263-3","Wayne Wobcke","2015","http://link.springer.com/article/10.1007/s10458-014-9263-3","Article"
"Modeling Minority Games with BDI Agents – A Case Study","Multiagent System Technologies","","","","10.1007/11550648_7","Wolfgang RenzJan Sudeikat","2005","http://link.springer.com/chapter/10.1007/11550648_7","Chapter"
"A Simple-to-Use BDI Architecture for Agent-Based Modeling and Simulation","Advances in Social Simulation 2015","","","","10.1007/978-3-319-47253-9_2","Philippe CaillouBenoit GaudouArnaud GrignardChi Quang TruongPatrick Taillandier","2017","http://link.springer.com/chapter/10.1007/978-3-319-47253-9_2","Chapter"
"An Extended BDI-Based Model for Human Decision-Making and Social Behavior: Various Applications","Constraint Programming and Decision Making","","","","10.1007/978-3-319-04280-0_19","Young-Jun Son","2014","http://link.springer.com/chapter/10.1007/978-3-319-04280-0_19","Chapter"
"Deliberation Process in a BDI Model with Bayesian Networks","Agent Computing and Multi-Agent Systems","","","","10.1007/978-3-642-01639-4_18","Moser Silva FagundesRosa Maria VicariHelder Coelho","2009","http://link.springer.com/chapter/10.1007/978-3-642-01639-4_18","Chapter"
"Virtual Enterprise Design - BDI Agents vs. Objects","Advances in Artificial Intelligence. PRICAI 2000 Workshop Reader","","","","10.1007/3-540-45408-X_16","Iyad RahwanRyszard KowalczykYun Yang","2001","http://link.springer.com/chapter/10.1007/3-540-45408-X_16","Chapter"
"Conversational Agents as Full-Pledged BDI Agents for Ambient Intelligence","Ambient Intelligence - Software and Applications","","","","10.1007/978-3-319-00566-9_28","Aida MustaphaMohd Sharifuddin AhmadAzhana Ahmad","2013","http://link.springer.com/chapter/10.1007/978-3-319-00566-9_28","Chapter"
"Semantics of BDI agents and their environment","Intelligent Agent Systems Theoretical and Practical Issues","","","","10.1007/3-540-62686-7_32","David Morley","1997","http://link.springer.com/chapter/10.1007/3-540-62686-7_32","Chapter"
"Improving the Reactivity of BDI Agent Programs","PRIMA 2013: Principles and Practice of Multi-Agent Systems","","","","10.1007/978-3-642-44927-7_7","Hoa Khanh DamTiancheng ZhangAditya Ghose","2013","http://link.springer.com/chapter/10.1007/978-3-642-44927-7_7","Chapter"
"Automatic BDI Plan Recognition from Process Execution Logs and Effect Logs","Engineering Multi-Agent Systems","","","","10.1007/978-3-642-45343-4_15","Hongyun XuBastin Tony Roy SavarimuthuAditya GhoseEvan MorrisonQiying CaoYouqun Shi","2013","http://link.springer.com/chapter/10.1007/978-3-642-45343-4_15","Chapter"
"Validation of BDI Agents","Programming Multi-Agent Systems","","","","10.1007/978-3-540-71956-4_11","Jan SudeikatLars BraubachAlexander PokahrWinfried LamersdorfWolfgang Renz","2007","http://link.springer.com/chapter/10.1007/978-3-540-71956-4_11","Chapter"
"A BDI agent system for the cow herding domain","Annals of Mathematics and Artificial Intelligence","","59","3 - 4","10.1007/s10472-010-9182-1","Nitin YadavChenguang ZhouSebastian SardinaRalph Rönnquist","2010","http://link.springer.com/article/10.1007/s10472-010-9182-1","Article"
"Natural Language Programming of Complex Robotic BDI Agents","Journal of Intelligent & Robotic Systems","","71","2","10.1007/s10846-012-9779-1","Nicholas K. LincolnSandor M. Veres","2013","http://link.springer.com/article/10.1007/s10846-012-9779-1","Article"
"BDI Models and Systems: Reducing the Gap","Intelligent Agents V: Agents Theories, Architectures, and Languages","","","","10.1007/3-540-49057-4_2","Michael C. MoraJose G. LopesRosa M. ViccarizHelder Coelho","1999","http://link.springer.com/chapter/10.1007/3-540-49057-4_2","Chapter"
"BDI Agent Programming in AgentSpeak Using Jason","Computational Logic in Multi-Agent Systems","","","","10.1007/11750734_9","Rafael H. BordiniJomi F. Hübner","2006","http://link.springer.com/chapter/10.1007/11750734_9","Chapter"
"Jadex: A BDI Reasoning Engine","Multi-Agent Programming","","","","10.1007/0-387-26350-0_6","Alexander PokahrLars BraubachWinfried Lamersdorf","2005","http://link.springer.com/chapter/10.1007/0-387-26350-0_6","Chapter"
"Structuring BDI Agents in Functional Clusters","Intelligent Agents VI. Agent Theories, Architectures, and Languages","","","","10.1007/10719619_21","Paolo BusettaNicholas HowdenRalph RönnquistAndrew Hodgson","2000","http://link.springer.com/chapter/10.1007/10719619_21","Chapter"
"Modeling Travel Assistant Agents: a graded BDI approach","Artificial Intelligence in Theory and Practice","","","","10.1007/978-0-387-34747-9_43","Ana CasaliLluís GodoCarles Sierra","2006","http://link.springer.com/chapter/10.1007/978-0-387-34747-9_43","Chapter"
"Extending the Operational Semantics of a BDI Agent-Oriented Programming Language for Introducing Speech-Act Based Communication","Declarative Agent Languages and Technologies","","","","10.1007/978-3-540-25932-9_8","Álvaro F. MoreiraRenata VieiraRafael H. Bordini","2004","http://link.springer.com/chapter/10.1007/978-3-540-25932-9_8","Chapter"
"Implementing Policy Management through BDI","Research and Development in Intelligent Systems XXI","","","","10.1007/1-84628-102-4_11","Simon MilesJuri PapayMichael LuckLuc Moreau","2005","http://link.springer.com/chapter/10.1007/1-84628-102-4_11","Chapter"
"Graded BDI Models for Agent Architectures","Computational Logic in Multi-Agent Systems","","","","10.1007/11533092_8","Ana CasaliLluís GodoCarles Sierra","2005","http://link.springer.com/chapter/10.1007/11533092_8","Chapter"
"Jadex: A BDI-Agent System Combining Middleware and Reasoning","Software Agent-Based Applications, Platforms and Development Kits","","","","10.1007/3-7643-7348-2_7","Lars BraubachAlexander PokahrWinfried Lamersdorf","2005","http://link.springer.com/chapter/10.1007/3-7643-7348-2_7","Chapter"
"The Definition of Legal Relations in a BDI Multiagent Framework","AI*IA 2001: Advances in Artificial Intelligence","","","","10.1007/3-540-45411-X_23","Guido BoellaLeonardo LesmoLyda Favali","2001","http://link.springer.com/chapter/10.1007/3-540-45411-X_23","Chapter"
"Graded BDI Models for Agent Architectures Based on Łukasiewicz Logic and Propositional Dynamic Logic","Web Information Systems and Mining","","","","10.1007/978-3-642-33469-6_56","Xiaojun ZhangMin JiangChangle ZhouYijiang Hao","2012","http://link.springer.com/chapter/10.1007/978-3-642-33469-6_56","Chapter"
"Representing Long-Term and Interest BDI Goals","Programming Multi-Agent Systems","","","","10.1007/978-3-642-14843-9_13","Lars BraubachAlexander Pokahr","2010","http://link.springer.com/chapter/10.1007/978-3-642-14843-9_13","Chapter"
"Modelling Internal Dynamic Behaviour of BDI Agents","Dynamics and Management of Reasoning Processes","","","","10.1007/978-94-017-1743-4_16","Frances M. T. BrazierBarbara Dunin-KepliczJan TreurRineke Verbrugge","2001","http://link.springer.com/chapter/10.1007/978-94-017-1743-4_16","Chapter"
"A Model-Driven Approach for Executing Modular Interaction Protocols Using BDI-Agents","Agent-Based Technologies and Applications for Enterprise Interoperability","","","","10.1007/978-3-642-28563-9_2","Esteban León-Soto","2012","http://link.springer.com/chapter/10.1007/978-3-642-28563-9_2","Chapter"
"Steering Plot Through Personality and Affect: An Extended BDI Model of Fictional Characters","KI 2017: Advances in Artificial Intelligence","","","","10.1007/978-3-319-67190-1_23","Leonid Berov","2017","http://link.springer.com/chapter/10.1007/978-3-319-67190-1_23","Chapter"
"Modelling Internal Dynamic Behaviour of BDI Agents","Formal Models of Agents","","","","10.1007/3-540-46581-2_4","Frances BrazierBarbara Dunin-KepliczJan TreurRineke Verbrugge","1999","http://link.springer.com/chapter/10.1007/3-540-46581-2_4","Chapter"
"Dynamically Adapting BDI Agents Based on High-Level User Specifications","Advanced Agent Technology","","","","10.1007/978-3-642-27216-5_11","Ingrid NunesMichael LuckSimone Diniz Junqueira BarbosaSimon MilesCarlos J. P. de Lucena","2012","http://link.springer.com/chapter/10.1007/978-3-642-27216-5_11","Chapter"
"An Extended BDI Agent with Policies and Contracts","Agent Computing and Multi-Agent Systems","","","","10.1007/11802372_12","Bei-shui LiaoHua-xin HuangJi Gao","2006","http://link.springer.com/chapter/10.1007/11802372_12","Chapter"
"Using the BDI Architecture to Produce Autonomous Characters in Virtual Worlds","Intelligent Virtual Agents","","","","10.1007/978-3-540-39396-2_32","Jorge A. TorresLuciana P. NedelRafael H. Bordini","2003","http://link.springer.com/chapter/10.1007/978-3-540-39396-2_32","Chapter"
"A BDI Model for Component and Service-Based Systems: Self-OSGi","Advances on Practical Applications of Agents and Multi-Agent Systems","","","","10.1007/978-3-642-28786-2_7","Mauro Dragone","2012","http://link.springer.com/chapter/10.1007/978-3-642-28786-2_7","Chapter"
"Coo-BDI: Extending the BDI Model with Cooperativity","Declarative Agent Languages and Technologies","","","","10.1007/978-3-540-25932-9_7","Davide AnconaViviana Mascardi","2004","http://link.springer.com/chapter/10.1007/978-3-540-25932-9_7","Chapter"
"Hybrid Multi-agent Systems: Integrating Swarming and BDI Agents","Engineering Self-Organising Systems","","","","10.1007/978-3-540-69868-5_1","H. Van Dyke ParunakPaul NielsenSven BruecknerRafael Alonso","2007","http://link.springer.com/chapter/10.1007/978-3-540-69868-5_1","Chapter"
"Bringing about rationality: Incorporating plans into a BDI agent architecture","PRICAI'96: Topics in Artificial Intelligence","","","","10.1007/3-540-61532-6_51","Lawrence CavedonAnand Rao","1996","http://link.springer.com/chapter/10.1007/3-540-61532-6_51","Chapter"
"Towards Semantic Merging of Versions of BDI Agent Systems","PRIMA 2013: Principles and Practice of Multi-Agent Systems","","","","10.1007/978-3-642-44927-7_32","Yingzhi GouHoa Khanh DamAditya Ghose","2013","http://link.springer.com/chapter/10.1007/978-3-642-44927-7_32","Chapter"
"Perception and BDI Reasoning Based Agent Model for Human Behavior Simulation in Complex System","Human-Computer Interaction. Towards Intelligent and Implicit Interaction","","","","10.1007/978-3-642-39342-6_8","Jaekoo Joo","2013","http://link.springer.com/chapter/10.1007/978-3-642-39342-6_8","Chapter"
"Proving BDI Properties of Agent-Oriented Programming Languages: The asymmetry thesis principles in AgentSpeak(L)","Annals of Mathematics and Artificial Intelligence","","42","1 - 3","10.1023/B:AMAI.0000034527.45635.e5","Rafael H. BordiniÁlvaro F. Moreira","2004","http://link.springer.com/article/10.1023/B%3AAMAI.0000034527.45635.e5","Article"
"Grafting Norms onto the BDI Agent Model","A Construction Manual for Robots' Ethical Systems","","","","10.1007/978-3-319-21548-8_7","Mihnea TufişJean-Gabriel Ganascia","2015","http://link.springer.com/chapter/10.1007/978-3-319-21548-8_7","Chapter"
"A Hybrid Approach for Designing an Adaptive User Interface: IDSS and BDI Agents","Advances in Software Engineering","","","","10.1007/978-3-642-10242-4_14","Noria TaghezoutAbdelkader AdlaPascale Zaraté","2009","http://link.springer.com/chapter/10.1007/978-3-642-10242-4_14","Chapter"
"Learning in BDI Multi-agent Systems","Computational Logic in Multi-Agent Systems","","","","10.1007/978-3-540-30200-1_12","Alejandro Guerra-HernándezAmal El Fallah-SeghrouchniHenry Soldano","2005","http://link.springer.com/chapter/10.1007/978-3-540-30200-1_12","Chapter"
"1000 Years of Coo-BDI","Declarative Agent Languages and Technologies IX","","","","10.1007/978-3-642-29113-5_9","Viviana MascardiDavide Ancona","2012","http://link.springer.com/chapter/10.1007/978-3-642-29113-5_9","Chapter"
"BDI Modelling and Simulation of Human Behaviours in Bushfires","Information Systems for Crisis Response and Management in Mediterranean Countries","","","","10.1007/978-3-319-47093-1_5","Carole AdamGeoffrey DanetJohn ThangarajahJulie Dugdale","2016","http://link.springer.com/chapter/10.1007/978-3-319-47093-1_5","Chapter"
"7. Composable BDI Agents","Autonomous Dynamic Reconfiguration in Multi-Agent Systems","","","","10.1007/3-540-45834-4_7","","2002","http://link.springer.com/chapter/10.1007/3-540-45834-4_7","Chapter"
"A Probabilistic Approach to Represent Emotions Intensity into BDI Agents","Agents and Artificial Intelligence","","","","10.1007/978-3-319-25210-0_14","João Carlos GluzPatricia Augustin Jaques","2015","http://link.springer.com/chapter/10.1007/978-3-319-25210-0_14","Chapter"
"Utilizing Permission Norms in BDI Practical Normative Reasoning","Coordination, Organizations, Institutions, and Norms in Agent Systems X","","","","10.1007/978-3-319-25420-3_1","Wagdi AlrawagfehFelipe Meneguzzi","2015","http://link.springer.com/chapter/10.1007/978-3-319-25420-3_1","Chapter"
"Programming BDI Agents with Pure Java","Multiagent System Technologies","","","","10.1007/978-3-319-11584-9_15","Alexander PokahrLars BraubachChristopher HaubeckJan Ladiges","2014","http://link.springer.com/chapter/10.1007/978-3-319-11584-9_15","Chapter"
"Mental State Abduction of BDI-Based Agents","Declarative Agent Languages and Technologies VI","","","","10.1007/978-3-540-93920-7_11","Michal P. SindlarMehdi M. DastaniFrank DignumJohn-Jules Ch. Meyer","2009","http://link.springer.com/chapter/10.1007/978-3-540-93920-7_11","Chapter"
"Mitteilungen des BDI 05/2004","Der Internist","","45","5","10.1007/s00108-004-1196-5","","2004","http://link.springer.com/article/10.1007/s00108-004-1196-5","Article"
"A Reasoning Model for CBR_BDI Agents Using an Adaptable Fuzzy Inference System","Current Topics in Artificial Intelligence","","","","10.1007/978-3-540-25945-9_10","Rosalía LazaReyes PavónJuan M. Corchado","2004","http://link.springer.com/chapter/10.1007/978-3-540-25945-9_10","Chapter"
"Research of E-Learning Intelligent Affective Model Based on BDI Agent with Learning Materials","Advances in Computer Science, Intelligent System and Environment","","","","10.1007/978-3-642-23777-5_17","XueJing GuQing LiRuiJiang Diao","2011","http://link.springer.com/chapter/10.1007/978-3-642-23777-5_17","Chapter"
"ITS, Agents, BDI, and Affection: Trying to Make a Plan Come Together","Intelligent Tutoring Systems","","","","10.1007/3-540-47987-2_5","Rosa Maria Vicari","2002","http://link.springer.com/chapter/10.1007/3-540-47987-2_5","Chapter"
"Operational Semantics for BDI Modules in Multi-agent Programming","Computational Logic in Multi-Agent Systems","","","","10.1007/978-3-642-16867-3_5","Mehdi DastaniBas R. Steunebrink","2010","http://link.springer.com/chapter/10.1007/978-3-642-16867-3_5","Chapter"
"Supporting Virtual Organisations Using BDI Agents and Constraints","Cooperative Information Agents VI","","","","10.1007/3-540-45741-0_20","Stuart ChalmersPeter M. D. GrayAlun Preece","2002","http://link.springer.com/chapter/10.1007/3-540-45741-0_20","Chapter"
"AgentSpeak(L): BDI agents speak out in a logical computable language","Agents Breaking Away","","","","10.1007/BFb0031845","Anand S. Rao","1996","http://link.springer.com/chapter/10.1007/BFb0031845","Chapter"
"Learning Within the BDI Framework: An Empirical Analysis","Knowledge-Based Intelligent Information and Engineering Systems","","","","10.1007/11553939_41","Toan PhungMichael WinikoffLin Padgham","2005","http://link.springer.com/chapter/10.1007/11553939_41","Chapter"
"Trust in LORA: Towards a Formal Definition of Trust in BDI Agents","Knowledge-Based Intelligent Information and Engineering Systems","","","","10.1007/11893004_59","Bevan JarvisLakhmi Jain","2006","http://link.springer.com/chapter/10.1007/11893004_59","Chapter"
"A Study on BDI Agent for the Integration of Engineering Processes","Cooperative Design, Visualization, and Engineering","","","","10.1007/11863649_19","Hanmin LeeSeong-Whan ParkJai-Kyung LeeJe-Sung BangJaeho Lee","2006","http://link.springer.com/chapter/10.1007/11863649_19","Chapter"
"Toward a Motivated BDI Agent Using Attributes Embedded in Mental States","Current Topics in Artificial Intelligence","","","","10.1007/11881216_48","José CascalhoLuis AntunesMilton CorrêaHelder Coelho","2006","http://link.springer.com/chapter/10.1007/11881216_48","Chapter"
"Goal Representation for BDI Agent Systems","Programming Multi-Agent Systems","","","","10.1007/978-3-540-32260-3_3","Lars BraubachAlexander PokahrDaniel MoldtWinfried Lamersdorf","2005","http://link.springer.com/chapter/10.1007/978-3-540-32260-3_3","Chapter"
"Incorporating PGMs into a BDI Architecture","PRIMA 2013: Principles and Practice of Multi-Agent Systems","","","","10.1007/978-3-642-44927-7_5","Yingke ChenJun HongWeiru LiuLluís GodoCarles SierraMichael Loughlin","2013","http://link.springer.com/chapter/10.1007/978-3-642-44927-7_5","Chapter"
"Normative Deliberation in Graded BDI Agents","Multiagent System Technologies","","","","10.1007/978-3-642-16178-0_7","Natalia CriadoEstefania ArgenteVicent Botti","2010","http://link.springer.com/chapter/10.1007/978-3-642-16178-0_7","Chapter"
"robo-CAMAL: A BDI motivational robot","Paladyn","","1","2","10.2478/s13230-010-0010-4","Darryl DavisJames Gwatkin","2010","http://link.springer.com/article/10.2478/s13230-010-0010-4","Article"
"Incorporating BDI Agents into Human-Agent Decision Making Research","Engineering Societies in the Agents World X","","","","10.1007/978-3-642-10203-5_8","Bart KamphorstArlette van WissenVirginia Dignum","2009","http://link.springer.com/chapter/10.1007/978-3-642-10203-5_8","Chapter"
"Formalisations of Capabilities for BDI-Agents","Autonomous Agents and Multi-Agent Systems","","10","3","10.1007/s10458-004-4345-2","Lin PadghamPatrick Lambrix","2005","http://link.springer.com/article/10.1007/s10458-004-4345-2","Article"
"Integrating Expectation Monitoring into BDI Agents","Programming Multi-Agent Systems","","","","10.1007/978-3-642-31915-0_5","Surangika RanathungaStephen CranefieldMartin Purvis","2012","http://link.springer.com/chapter/10.1007/978-3-642-31915-0_5","Chapter"
"A Model of BDI-Agent in Game-Theoretic Framework","Formal Models of Agents","","","","10.1007/3-540-46581-2_2","Stanisław AmbroszkiewiczJan Komar","1999","http://link.springer.com/chapter/10.1007/3-540-46581-2_2","Chapter"
"g-BDI: A Graded Intensional Agent Model for Practical Reasoning","Modeling Decisions for Artificial Intelligence","","","","10.1007/978-3-642-04820-3_2","Ana CasaliLluís GodoCarles Sierra","2009","http://link.springer.com/chapter/10.1007/978-3-642-04820-3_2","Chapter"
"Aligning Decision Support with Shop Floor Operations: A Proposal of Intelligent Product Based on BDI Physical Agents","Service Orientation in Holonic and Multi-agent Manufacturing","","","","10.1007/978-3-319-15159-5_9","Pablo García AnsolaAndrés GarcíaJavier de las Morenas","2015","http://link.springer.com/chapter/10.1007/978-3-319-15159-5_9","Chapter"
"Actions Made Explicit in BDI","AI 2001: Advances in Artificial Intelligence","","","","10.1007/3-540-45656-2_34","Vineet PadmanabhanGuido GovernatoriAbdul Sattar","2001","http://link.springer.com/chapter/10.1007/3-540-45656-2_34","Chapter"
"A Goal Deliberation Strategy for BDI Agent Systems","Multiagent System Technologies","","","","10.1007/11550648_8","Alexander PokahrLars BraubachWinfried Lamersdorf","2005","http://link.springer.com/chapter/10.1007/11550648_8","Chapter"
"Automated Test Case Generation for BDI Agents","Autonomous Agents and Multi-Agent Systems","","2","4","10.1023/A:1010011219782","Chi Keen LowT. Y. ChenRalph Rónnquist","1999","http://link.springer.com/article/10.1023/A%3A1010011219782","Article"
"Fuzzy Neuro-BDI","Artificial Intelligence Applications and Innovations","","","","10.1007/0-387-29295-0_37","Haibo LiuGuochang GuJing Shen","2005","http://link.springer.com/chapter/10.1007/0-387-29295-0_37","Chapter"
"Computational Architecture for BDI Agents","Understanding Agent Systems","","","","10.1007/978-3-662-10702-7_8","Mark d’InvernoMichael Luck","2004","http://link.springer.com/chapter/10.1007/978-3-662-10702-7_8","Chapter"
"Computational Architecture for BDI Agents","Understanding Agent Systems","","","","10.1007/978-3-662-04607-4_7","Mark d’InvernoMichael Luck","2001","http://link.springer.com/chapter/10.1007/978-3-662-04607-4_7","Chapter"
"An Extension of BDICTL with Functional Dependencies and Components","Logic for Programming, Artificial Intelligence, and Reasoning","","","","10.1007/3-540-36078-6_8","Mehdi DastaniLeendert van der Torre","2002","http://link.springer.com/chapter/10.1007/3-540-36078-6_8","Chapter"
"Rational Strategies for Norm Compliance in the n-BDI Proposal","Coordination, Organizations, Institutions, and Norms in Agent Systems VI","","","","10.1007/978-3-642-21268-0_1","Natalia CriadoEstefania ArgenteVicent Botti","2011","http://link.springer.com/chapter/10.1007/978-3-642-21268-0_1","Chapter"
"MASE-BDI: agent-based simulator for environmental land change with efficient and parallel auto-tuning","Applied Intelligence","","45","3","10.1007/s10489-016-0797-8","Cássio G. C. CoelhoCarolina G. AbreuRafael M. RamosAldo H. D. MendesGeorge TeodoroCélia G. Ralha","2016","http://link.springer.com/article/10.1007/s10489-016-0797-8","Article"
"A Framework for Splitting BDI Agents","Logic for Programming, Artificial Intelligence, and Reasoning","","","","10.1007/3-540-36078-6_11","Xiaocong FanJohn Yen","2002","http://link.springer.com/chapter/10.1007/3-540-36078-6_11","Chapter"
"Business Rules for Creating Process Flexibility: Mapping RIF Rules and BDI Rules","Web Information Systems Engineering – WISE 2010 Workshops","","","","10.1007/978-3-642-24396-7_12","Yiwei GongSietse OverbeekMarijn Janssen","2011","http://link.springer.com/chapter/10.1007/978-3-642-24396-7_12","Chapter"
"From a Goal-Oriented Methodology to a BDI Agent Language: The Case of Tropos and Alan","On the Move to Meaningful Internet Systems 2007: OTM 2007 Workshops","","","","10.1007/978-3-540-76888-3_30","Francesco PagliarecciLoris PenseriniLuca Spalazzi","2007","http://link.springer.com/chapter/10.1007/978-3-540-76888-3_30","Chapter"
"Flexible Conversation Management Using a BDI Agent Approach","Intelligent Virtual Agents","","","","10.1007/978-3-642-33197-8_48","Wilson WongLawrence CavedonJohn ThangarajahLin Padgham","2012","http://link.springer.com/chapter/10.1007/978-3-642-33197-8_48","Chapter"
"Enhancing NetLogo to Simulate BDI Communicating Agents","Artificial Intelligence: Theories, Models and Applications","","","","10.1007/978-3-540-87881-0_24","Ilias SakellariouPetros KefalasIoanna Stamatopoulou","2008","http://link.springer.com/chapter/10.1007/978-3-540-87881-0_24","Chapter"
"A BDI Emotional Reasoning Engine for an Artificial Companion","Highlights of Practical Applications of Heterogeneous Multi-Agent Systems. The PAAMS Collection","","","","10.1007/978-3-319-07767-3_7","Carole AdamEmiliano Lorini","2014","http://link.springer.com/chapter/10.1007/978-3-319-07767-3_7","Chapter"
"Postulates for revising BDI structures","Synthese","","175","1","10.1007/s11229-010-9735-1","John GrantSarit KrausDonald PerlisMichael Wooldridge","2010","http://link.springer.com/article/10.1007/s11229-010-9735-1","Article"
"A Common Basis for Agent Organisation in BDI Languages","Languages, Methodologies and Development Tools for Multi-Agent Systems","","","","10.1007/978-3-540-85058-8_5","Anthony HeppleLouise DennisMichael Fisher","2008","http://link.springer.com/chapter/10.1007/978-3-540-85058-8_5","Chapter"
"Goal-Based Communication Using BDI Agents as Virtual Humans in Training: An Ontology Driven Dialogue System","Agents for Games and Simulations II","","","","10.1007/978-3-642-18181-8_3","Joost van OijenWillem van DoesburgFrank Dignum","2011","http://link.springer.com/chapter/10.1007/978-3-642-18181-8_3","Chapter"
"A Common Semantic Basis for BDI Languages","Programming Multi-Agent Systems","","","","10.1007/978-3-540-79043-3_8","Louise A. DennisBerndt FarwerRafael H. BordiniMichael FisherMichael Wooldridge","2008","http://link.springer.com/chapter/10.1007/978-3-540-79043-3_8","Chapter"
"Intentions in BDI Agents: From Theory to Implementation","7th International Conference on Practical Applications of Agents and Multi-Agent Systems (PAAMS 2009)","","","","10.1007/978-3-642-00487-2_24","S. BonuraV. MorrealeG. FrancavigliaA. MarguglioG. CammarataM. Puccio","2009","http://link.springer.com/chapter/10.1007/978-3-642-00487-2_24","Chapter"
"Enhancing Believability of Virtual Soccer Players: Application of a BDI-Model with Emotions and Trust","Developing Concepts in Applied Intelligence","","","","10.1007/978-3-642-21332-8_18","Tibor BosseDaniel Höhle","2011","http://link.springer.com/chapter/10.1007/978-3-642-21332-8_18","Chapter"
"Toward BDI Sapient Agents: Learning Intentionally","Toward Artificial Sapience","","","","10.1007/978-1-84628-999-6_5","Alejandro Guerra-HernándezGustavo Ortíz-Hernández","2008","http://link.springer.com/chapter/10.1007/978-1-84628-999-6_5","Chapter"
"Simulation of Dynamic Systems Using BDI Agents: Initial Steps","Intelligent Distributed Computing X","","","","10.1007/978-3-319-48829-5_3","Amelia BădicăCostin BădicăMarius BrezovanMirjana Ivanović","2017","http://link.springer.com/chapter/10.1007/978-3-319-48829-5_3","Chapter"
"iRoute: Cognitive Support for Independent Living Using BDI Agent Deliberation","Trends in Practical Applications of Agents and Multiagent Systems","","","","10.1007/978-3-642-19931-8_6","Shabbir HossainKasper HallenborgYves Demazeau","2011","http://link.springer.com/chapter/10.1007/978-3-642-19931-8_6","Chapter"
"Modelling Emotional Agents Based on Graded BDI Architectures","Network Computing and Information Security","","","","10.1007/978-3-642-35211-9_77","Xiaojun Zhang","2012","http://link.springer.com/chapter/10.1007/978-3-642-35211-9_77","Chapter"
"Context-dependent combination of sensor information in Dempster–Shafer theory for BDI","Knowledge and Information Systems","","51","1","10.1007/s10115-016-0978-0","Sarah CalderwoodKevin McAreaveyWeiru LiuJun Hong","2017","http://link.springer.com/article/10.1007/s10115-016-0978-0","Article"
"How Testable Are BDI Agents? An Analysis of Branch Coverage","Autonomous Agents and Multiagent Systems","","","","10.1007/978-3-319-46882-2_6","Michael Winikoff","2016","http://link.springer.com/chapter/10.1007/978-3-319-46882-2_6","Chapter"
"How Testable are BDI Agents? An Analysis of Branch Coverage","Engineering Multi-Agent Systems","","","","10.1007/978-3-319-50983-9_12","Michael Winikoff","2016","http://link.springer.com/chapter/10.1007/978-3-319-50983-9_12","Chapter"
"A BDI Agent Architecture for the GAMA Modeling and Simulation Platform","Multi-Agent Based Simulation XVII","","","","10.1007/978-3-319-67477-3_1","Patrick TaillandierMathieu BourgaisPhilippe CaillouCarole AdamBenoit Gaudou","2017","http://link.springer.com/chapter/10.1007/978-3-319-67477-3_1","Chapter"
"A methodology and modelling technique for systems of BDI agents","Agents Breaking Away","","","","10.1007/BFb0031846","David KinnyMichael GeorgeffAnand Rao","1996","http://link.springer.com/chapter/10.1007/BFb0031846","Chapter"
"BDI agent testability revisited","Autonomous Agents and Multi-Agent Systems","","31","5","10.1007/s10458-016-9356-2","Michael Winikoff","2017","http://link.springer.com/article/10.1007/s10458-016-9356-2","Article"
"Improving the Design and Modularity of BDI Agents with Capability Relationships","Engineering Multi-Agent Systems","","","","10.1007/978-3-319-14484-9_4","Ingrid Nunes","2014","http://link.springer.com/chapter/10.1007/978-3-319-14484-9_4","Chapter"
"Experiments with Multiple BDI Agents with Dynamic Learning Capabilities","Highlights of Practical Applications of Scalable Multi-Agent Systems. The PAAMS Collection","","","","10.1007/978-3-319-39387-2_23","Amelia BădicăCostin BădicăMaria GanzhaMirjana IvanovićMarcin Paprzycki","2016","http://link.springer.com/chapter/10.1007/978-3-319-39387-2_23","Chapter"
"An Empirical Evaluation of the Huginn Constrained Norm-Aware BDI Reasoner","Coordination, Organizations, Institutions, and Norms in Agent Systems XI","","","","10.1007/978-3-319-42691-4_18","Tiago Luiz SchmitzJomi Fred Hübner","2016","http://link.springer.com/chapter/10.1007/978-3-319-42691-4_18","Chapter"
"Defeasible Argumentation Support for an Extended BDI Architecture","Argumentation in Multi-Agent Systems","","","","10.1007/978-3-540-78915-4_10","Nicolás D. RotsteinAlejandro J. GarcíaGuillermo R. Simari","2008","http://link.springer.com/chapter/10.1007/978-3-540-78915-4_10","Chapter"
"Do You Get It? User-Evaluated Explainable BDI Agents","Multiagent System Technologies","","","","10.1007/978-3-642-16178-0_5","Joost BroekensMaaike HarbersKoen HindriksKarel van den BoschCatholijn JonkerJohn-Jules Meyer","2010","http://link.springer.com/chapter/10.1007/978-3-642-16178-0_5","Chapter"
"Mitteilungen des BDI","Der Internist","","57","6","10.1007/s00108-016-0080-4","","2016","http://link.springer.com/article/10.1007/s00108-016-0080-4","Article"
"The Beck Depression Inventory (BDI-II) and a single screening question as screening tools for depressive disorder in Dutch advanced cancer patients","Supportive Care in Cancer","","20","2","10.1007/s00520-010-1082-8","Franca WarmenhovenEric van RijswijkYvonne EngelsCornelis KanJudith PrinsChris van WeelKris Vissers","2012","http://link.springer.com/article/10.1007/s00520-010-1082-8","Article"
"Mitteilungen des BDI","Der Internist","","57","9","10.1007/s00108-016-0119-6","","2016","http://link.springer.com/article/10.1007/s00108-016-0119-6","Article"
"Fidelity of Implementation of the BDI-2: A Case Study","Fidelity of Implementation in Assessment of Infants and Toddlers","","","","10.1007/978-3-319-74618-0_4","Angela Stone-MacDonaldLianna PizzoNoah Feldman","2018","http://link.springer.com/chapter/10.1007/978-3-319-74618-0_4","Chapter"
"Understanding the Behaviour of Learning-Based BDI Agents in the Braess’ Paradox","Multiagent System Technologies","","","","10.1007/978-3-319-64798-2_12","João FaccinIngrid NunesAna Bazzan","2017","http://link.springer.com/chapter/10.1007/978-3-319-64798-2_12","Chapter"
"Demo: A BDI Model for Component and Service-Based Systems: Self-OSGi","Advances on Practical Applications of Agents and Multi-Agent Systems","","","","10.1007/978-3-642-28786-2_29","Mauro Dragone","2012","http://link.springer.com/chapter/10.1007/978-3-642-28786-2_29","Chapter"
"Accessing Cloud Services through BDI Agents","Trends in Practical Applications of Agents and Multiagent Systems","","","","10.1007/978-3-642-28795-4_3","Kasper HallenborgPedro ValenteYves Demazeau","2012","http://link.springer.com/chapter/10.1007/978-3-642-28795-4_3","Chapter"
"Computational Models of Immediate and Expected Emotions for Emotional BDI Agents","Artificial Intelligence and Soft Computing","","","","10.1007/978-3-319-19369-4_38","Hanen Lejmi RiahiFahem KebairLamjed Ben Said","2015","http://link.springer.com/chapter/10.1007/978-3-319-19369-4_38","Chapter"
"Extending the Capability Concept for Flexible BDI Agent Modularization","Programming Multi-Agent Systems","","","","10.1007/11678823_9","Lars BraubachAlexander PokahrWinfried Lamersdorf","2006","http://link.springer.com/chapter/10.1007/11678823_9","Chapter"
"A Namespace Approach for Modularity in BDI Programming Languages","Engineering Multi-Agent Systems","","","","10.1007/978-3-319-50983-9_7","Gustavo Ortiz-HernándezJomi Fred HübnerRafael H. BordiniAlejandro Guerra-HernándezGuillermo J. Hoyos-RiveraNicandro Cruz-Ramírez","2016","http://link.springer.com/chapter/10.1007/978-3-319-50983-9_7","Chapter"
"Design and application of a CA-BDI model to determine farmers’ land-use behavior","SpringerPlus","","5","1","10.1186/s40064-016-3245-7","Xiaoying LiangHai ChenYanni WangShixiong Song","2016","http://link.springer.com/article/10.1186/s40064-016-3245-7","Article"
"Dynamic e-Learning Content Selection with BDI Agents","Highlights of Practical Applications of Agents, Multi-Agent Systems, and Sustainability - The PAAMS Collection","","","","10.1007/978-3-319-19033-4_25","João de Amorim Jr.Thiago Ângelo GelaimRicardo Azambuja Silveira","2015","http://link.springer.com/chapter/10.1007/978-3-319-19033-4_25","Chapter"
"A BDI-Based Methodology for Eliciting Tactical Decision-Making Expertise","Data and Decision Sciences in Action","","","","10.1007/978-3-319-55914-8_2","Rick EvertszJohn ThangarajahThanh Ly","2018","http://link.springer.com/chapter/10.1007/978-3-319-55914-8_2","Chapter"
"A Multi-agent Architecture Based on the BDI Model for Data Fusion in Visual Sensor Networks","Journal of Intelligent & Robotic Systems","","62","3 - 4","10.1007/s10846-010-9448-1","Federico CastanedoJesús GarcíaMiguel A. PatricioJosé M. Molina","2011","http://link.springer.com/article/10.1007/s10846-010-9448-1","Article"
"Debugging BDI-Based Multi-Agent Programs","Programming Multi-Agent Systems","","","","10.1007/978-3-642-14843-9_10","Mehdi DastaniJaap BrandsemaAmco DubelJohn-Jules Ch. Meyer","2010","http://link.springer.com/chapter/10.1007/978-3-642-14843-9_10","Chapter"
"BDI Based Performance Enhancement in DNSSEC","Distributed Computing and Internet Technology","","","","10.1007/978-3-319-72344-0_8","Kollapalli Ramesh BabuVineet Padmanabhan","2018","http://link.springer.com/chapter/10.1007/978-3-319-72344-0_8","Chapter"
"A Software Engineering Process for BDI Agents","Agent and Multi-Agent Systems: Technologies and Applications","","","","10.1007/978-3-540-78582-8_14","Aaron HectorFrans HenskensMichael Hannaford","2008","http://link.springer.com/chapter/10.1007/978-3-540-78582-8_14","Chapter"
"The C2BDI Agent Architecture for Teamwork Coordination Using Spoken Dialogues between Virtual Agents and Users","Advances in Practical Applications of Heterogeneous Multi-Agent Systems. The PAAMS Collection","","","","10.1007/978-3-319-07551-8_27","Mukesh BarangeAlexandre KabilPierre Chevaillier","2014","http://link.springer.com/chapter/10.1007/978-3-319-07551-8_27","Chapter"
"Normative Run-Time Reasoning for Institutionally-Situated BDI Agents","Coordination, Organizations, Institutions, and Norms in Agent System VII","","","","10.1007/978-3-642-35545-5_8","Tina BalkeMarina De VosJulian Padget","2012","http://link.springer.com/chapter/10.1007/978-3-642-35545-5_8","Chapter"
"Explaining and Predicting the Behavior of BDI-Based Agents in Role-Playing Games","Declarative Agent Languages and Technologies VII","","","","10.1007/978-3-642-11355-0_11","Michal P. SindlarMehdi M. DastaniFrank DignumJohn-Jules Ch. Meyer","2010","http://link.springer.com/chapter/10.1007/978-3-642-11355-0_11","Chapter"
"Conceptual Model of BDI Agents within an ITS","Conceptual Modeling for Advanced Application Domains","","","","10.1007/978-3-540-30466-1_46","Frances MowldsBernard Joseph Roche","2004","http://link.springer.com/chapter/10.1007/978-3-540-30466-1_46","Chapter"
"Mitteilungen des BDI","Der Diabetologe","","13","4","10.1007/s11428-017-0228-4","","2017","http://link.springer.com/article/10.1007/s11428-017-0228-4","Article"
"BDI-Based Development of Virtual Characters with a Theory of Mind","Intelligent Virtual Agents","","","","10.1007/978-3-642-04380-2_7","Michal P. SindlarMehdi M. DastaniJohn-Jules Ch. Meyer","2009","http://link.springer.com/chapter/10.1007/978-3-642-04380-2_7","Chapter"
"Mitteilungen des BDI","Der Internist","","58","6","10.1007/s00108-017-0264-6","","2017","http://link.springer.com/article/10.1007/s00108-017-0264-6","Article"
"Alternatives to Threshold-Based Desire Selection in Bayesian BDI Agents","Engineering Multi-Agent Systems","","","","10.1007/978-3-642-45343-4_10","Bernardo LuzFelipe MeneguzziRosa Vicari","2013","http://link.springer.com/chapter/10.1007/978-3-642-45343-4_10","Chapter"
"Using BDI to Model Players Behaviour in an Interactive Fiction Game","Interactive Storytelling","","","","10.1007/978-3-319-48279-8_19","Jessica Rivera-VillicanaFabio ZambettaJames HarlandMarsha Berry","2016","http://link.springer.com/chapter/10.1007/978-3-319-48279-8_19","Chapter"
"Towards a Design Approach for Integrating BDI Agents in Virtual Environments","Intelligent Virtual Agents","","","","10.1007/978-3-642-23974-8_63","Joost van OijenFrank Dignum","2011","http://link.springer.com/chapter/10.1007/978-3-642-23974-8_63","Chapter"
"An Argumentation-Based BDI Personal Assistant","Trends in Applied Intelligent Systems","","","","10.1007/978-3-642-13022-9_70","Federico SchlesingerEdgardo FerrettiMarcelo ErrecaldeGuillermo Aguirre","2010","http://link.springer.com/chapter/10.1007/978-3-642-13022-9_70","Chapter"
"Using Peer-to-Peer Protocols to Enable Implicit Communication in a BDI Agent Architecture","Programming Multi-Agent Systems","","","","10.1007/978-3-540-71956-4_2","Klaus FischerJörg P. MüllerFabian StäberThomas Friese","2007","http://link.springer.com/chapter/10.1007/978-3-540-71956-4_2","Chapter"
"Designing and Implementing a Framework for BDI-Style Communicating Agents in Haskell","Declarative Agent Languages and Technologies X","","","","10.1007/978-3-642-37890-4_13","Alessandro SolimandoRiccardo Traverso","2013","http://link.springer.com/chapter/10.1007/978-3-642-37890-4_13","Chapter"
"Casuist BDI-Agent: A New Extended BDI Architecture with the Capability of Ethical Reasoning","Artificial Intelligence and Computational Intelligence","","","","10.1007/978-3-642-05253-8_10","Ali Reza HonarvarNasser Ghasem-Aghaee","2009","http://link.springer.com/chapter/10.1007/978-3-642-05253-8_10","Chapter"
"An Argumentation Framework for BDI Agents","Intelligent Distributed Computing VII","","","","10.1007/978-3-319-01571-2_40","Tudor Berariu","2014","http://link.springer.com/chapter/10.1007/978-3-319-01571-2_40","Chapter"
"A Weather Forecasting System Using Intelligent BDI Multiagent-Based Group Method of Data Handling","Hard and Soft Computing for Artificial Intelligence, Multimedia and Security","","","","10.1007/978-3-319-48429-7_4","W. RogozaM. Zabłocki","2017","http://link.springer.com/chapter/10.1007/978-3-319-48429-7_4","Chapter"
"On Fibring Semantics for BDI Logics","Logics in Artificial Intelligence","","","","10.1007/3-540-45757-7_17","Guido GovernatoriVineet PadmanabhanAbdul Sattar","2002","http://link.springer.com/chapter/10.1007/3-540-45757-7_17","Chapter"
"A Quantum-BDI Model for Information Processing and Decision Making","International Journal of Theoretical Physics","","54","2","10.1007/s10773-014-2263-x","Cristian BiscontiAngelo CoralloLaura FortunatoAntonio A. Gentile","2015","http://link.springer.com/article/10.1007/s10773-014-2263-x","Article"
"A formal model of emotion triggers: an approach for BDI agents","Synthese","","185","1","10.1007/s11229-011-0004-8","Bas R. SteunebrinkMehdi DastaniJohn-Jules Ch. Meyer","2012","http://link.springer.com/article/10.1007/s11229-011-0004-8","Article"
"Mitteilungen BDI","Der Gastroenterologe","","4","3","10.1007/s11377-009-0303-5","","2009","http://link.springer.com/article/10.1007/s11377-009-0303-5","Article"
"AUV fuzzy neural BDI","Journal of Marine Science and Application","","4","3","10.1007/s11804-005-0019-y","Liu Hai-boGu Guo-changShen JingFu Yan","2005","http://link.springer.com/article/10.1007/s11804-005-0019-y","Article"
"Kongressseiten des BDI 12/05","Der Internist","","46","12","10.1007/s00108-005-1540-4","","2005","http://link.springer.com/article/10.1007/s00108-005-1540-4","Article"
"Reasoning with Levels of Modalities in BDI Logic","Agent Computing and Multi-Agent Systems","","","","10.1007/978-3-642-01639-4_39","Jeff BleeDavid BillingtonAbdul Sattar","2009","http://link.springer.com/chapter/10.1007/978-3-642-01639-4_39","Chapter"
"Comparing the Beck Depression Inventory-II (BDI-II) and Patient Health Questionnaire (PHQ-9) Depression Measures in an Outpatient Bariatric Clinic","Obesity Surgery","","26","6","10.1007/s11695-015-1877-2","Paul E. SchuttSimon KungMatthew M. ClarkAfton M. KoballKaren B. Grothe","2016","http://link.springer.com/article/10.1007/s11695-015-1877-2","Article"
"TowardWisdom in Procedural Reasoning: DBI, not BDI","Toward Artificial Sapience","","","","10.1007/978-1-84628-999-6_6","Kirk A. Weigand","2008","http://link.springer.com/chapter/10.1007/978-1-84628-999-6_6","Chapter"
"Mitteilungen des BDI 03/06","Der Internist","","47","3","10.1007/s00108-006-1594-y","","2006","http://link.springer.com/article/10.1007/s00108-006-1594-y","Article"
"Mitteilungen BDI","Der Diabetologe","","5","5","10.1007/s11428-009-0466-1","","2009","http://link.springer.com/article/10.1007/s11428-009-0466-1","Article"
"Mitteilungen des BDI","Der Internist","","50","12","10.1007/s00108-009-2529-1","","2009","http://link.springer.com/article/10.1007/s00108-009-2529-1","Article"
"A BDI Approach to Infer Student’s Emotions","Advances in Artificial Intelligence – IBERAMIA 2004","","","","10.1007/978-3-540-30498-2_90","Patricia A. JaquesRosa M. Viccari","2004","http://link.springer.com/chapter/10.1007/978-3-540-30498-2_90","Chapter"
"Mitteilungen BDI 08/2005","Der Internist","","46","8","10.1007/s00108-005-1471-0","","2005","http://link.springer.com/article/10.1007/s00108-005-1471-0","Article"
"BDI","Der Diabetologe","","5","7","10.1007/s11428-009-0506-x","","2009","http://link.springer.com/article/10.1007/s11428-009-0506-x","Article"
"Mitteilungen des BDI","Der Internist","","57","3","10.1007/s00108-016-0034-x","","2016","http://link.springer.com/article/10.1007/s00108-016-0034-x","Article"
"BDi-Mitteilungen 1/07","Der Gastroenterologe","","2","1","10.1007/s11377-006-0066-1","","2007","http://link.springer.com/article/10.1007/s11377-006-0066-1","Article"
"Mitteilungen des BDI","Der Diabetologe","","7","3","10.1007/s11428-011-0714-z","","2011","http://link.springer.com/article/10.1007/s11428-011-0714-z","Article"
"An Exploration in Using Cognitive Coherence Theory to Automate BDI Agents’ Communicational Behavior","Advances in Agent Communication","","","","10.1007/978-3-540-24608-4_3","Philippe PasquierNicolas AndrillonMarc-André LabrieBrahim Chaib-draa","2004","http://link.springer.com/chapter/10.1007/978-3-540-24608-4_3","Chapter"
"BDI","Der Diabetologe","","6","3","10.1007/s11428-010-0573-z","","2010","http://link.springer.com/article/10.1007/s11428-010-0573-z","Article"
"Mitteilungen des BDI","Der Diabetologe","","10","5","10.1007/s11428-014-1259-8","","2014","http://link.springer.com/article/10.1007/s11428-014-1259-8","Article"
"Mitteilungen des BDI","Der Diabetologe","","12","4","10.1007/s11428-016-0118-1","","2016","http://link.springer.com/article/10.1007/s11428-016-0118-1","Article"
"The use of the Biological Diatom Index (BDI) for the assessment of water quality in the Pilica River, Poland","Oceanological and Hydrobiological Studies","","42","2","10.2478/s13545-013-0073-z","Bogusław SzulcKatarzyna Szulc","2013","http://link.springer.com/article/10.2478/s13545-013-0073-z","Article"
"Mitteilungen des BDI","Der Internist","","57","8","10.1007/s00108-016-0107-x","","2016","http://link.springer.com/article/10.1007/s00108-016-0107-x","Article"
"Mitteilungsseiten des BDI","Der Gastroenterologe","","12","4","10.1007/s11377-017-0183-z","","2017","http://link.springer.com/article/10.1007/s11377-017-0183-z","Article"
"Mitteilungen des BDI","Der Internist","","58","5","10.1007/s00108-017-0236-x","","2017","http://link.springer.com/article/10.1007/s00108-017-0236-x","Article"
"Mitteilungen des BDI","Der Internist","","57","12","10.1007/s00108-016-0160-5","","2016","http://link.springer.com/article/10.1007/s00108-016-0160-5","Article"
"Mitteilungen des BDI","Der Internist","","50","1","10.1007/s00108-008-2297-3","","2009","http://link.springer.com/article/10.1007/s00108-008-2297-3","Article"
"Mitteilungen des BDI","Der Diabetologe","","11","1","10.1007/s11428-015-1345-6","","2015","http://link.springer.com/article/10.1007/s11428-015-1345-6","Article"
"Mitteilungen des BDI","Der Internist","","56","3","10.1007/s00108-015-3678-z","","2015","http://link.springer.com/article/10.1007/s00108-015-3678-z","Article"
"Mitteilunges des BDI","Der Diabetologe","","12","2","10.1007/s11428-016-0075-8","","2016","http://link.springer.com/article/10.1007/s11428-016-0075-8","Article"
"Mitteilungen des BDI","Der Internist","","51","12","10.1007/s00108-010-2770-7","","2010","http://link.springer.com/article/10.1007/s00108-010-2770-7","Article"
"Mitteilungen des BDI","Der Diabetologe","","11","2","10.1007/s11428-015-1362-5","","2015","http://link.springer.com/article/10.1007/s11428-015-1362-5","Article"
"BDI","Der Diabetologe","","6","7","10.1007/s11428-010-0650-3","","2010","http://link.springer.com/article/10.1007/s11428-010-0650-3","Article"
"Mitteilungen des BDI","Der Nephrologe","","11","4","10.1007/s11560-016-0081-2","","2016","http://link.springer.com/article/10.1007/s11560-016-0081-2","Article"
"Mitteilungen des BDI","Der Nephrologe","","12","4","10.1007/s11560-017-0172-8","","2017","http://link.springer.com/article/10.1007/s11560-017-0172-8","Article"
"Mitteilungen des BDI 01/2006","Der Internist","","47","1","10.1007/s00108-005-1565-8","","2006","http://link.springer.com/article/10.1007/s00108-005-1565-8","Article"
"Mitteilungen des BDI 02/06","Der Internist","","47","2","10.1007/s00108-006-1582-2","","2006","http://link.springer.com/article/10.1007/s00108-006-1582-2","Article"
"Mitteilungen des BDI 11/05","Der Internist","","46","11","10.1007/s00108-005-1531-5","","2005","http://link.springer.com/article/10.1007/s00108-005-1531-5","Article"
"Mitteilungen des BDI 04/06","Der Internist","","47","4","10.1007/s00108-006-1606-y","","2006","http://link.springer.com/article/10.1007/s00108-006-1606-y","Article"
"Translating Statecharts-Based into BDI Agents: The DSC/PROFETA Case","Multiagent System Technologies","","","","10.1007/978-3-642-40776-5_23","Giancarlo FortinoWilma RussoCorrado Santoro","2013","http://link.springer.com/chapter/10.1007/978-3-642-40776-5_23","Chapter"
"Development of the Perinatal Depression Inventory (PDI)-14 using item response theory: a comparison of the BDI-II, EPDS, PDI, and PHQ-9","Archives of Women's Mental Health","","19","2","10.1007/s00737-015-0553-9","Benjamin B. BrodeySherryl H. GoodmanRuth E. BaldasaroAmy Brooks-DeWeeseMelanie Elliott WilsonInger S. B. BrodeyNora M. Doyle","2016","http://link.springer.com/article/10.1007/s00737-015-0553-9","Article"
"Mitteilungen des BDI","Der Internist","","49","8","10.1007/s00108-008-2190-0","","2008","http://link.springer.com/article/10.1007/s00108-008-2190-0","Article"
"Mitteilungen des BDI 10/05","Der Internist","","46","10","10.1007/s00108-005-1506-6","","2005","http://link.springer.com/article/10.1007/s00108-005-1506-6","Article"
"Mitteilungen des BDI 02/2008","Der Internist","","49","2","10.1007/s00108-008-2043-x","","2008","http://link.springer.com/article/10.1007/s00108-008-2043-x","Article"
"BDI-Mitteilungen 11/06","Der Internist","","47","11","10.1007/s00108-006-1742-4","","2006","http://link.springer.com/article/10.1007/s00108-006-1742-4","Article"
"Mitteilungen des BDI 09/05","Der Internist","","46","9","10.1007/s00108-005-1478-6","","2005","http://link.springer.com/article/10.1007/s00108-005-1478-6","Article"
"On the Relationship Between BDI Logics and Standard Logics of Concurrency","Autonomous Agents and Multi-Agent Systems","","3","3","10.1023/A:1010076027707","Klaus Schild","2000","http://link.springer.com/article/10.1023/A%3A1010076027707","Article"
"Mitteilungen des BDI 12/05","Der Internist","","46","12","10.1007/s00108-005-1539-x","","2005","http://link.springer.com/article/10.1007/s00108-005-1539-x","Article"
"A first-order coalition logic for BDI-agents","Frontiers of Computer Science","","10","2","10.1007/s11704-015-4591-2","Qingliang ChenKaile SuAbdul SattarXiangyu LuoAixiang Chen","2016","http://link.springer.com/article/10.1007/s11704-015-4591-2","Article"
"Mitteilungen des BDI 06/2004","Der Internist","","45","6","10.1007/s00108-004-1217-4","","2004","http://link.springer.com/article/10.1007/s00108-004-1217-4","Article"
"Formal Modelling of Emotions in BDI Agents","Computational Logic in Multi-Agent Systems","","","","10.1007/978-3-540-88833-8_4","David PereiraEugénio OliveiraNelma Moreira","2008","http://link.springer.com/chapter/10.1007/978-3-540-88833-8_4","Chapter"
"Mitteilungen BDI 5/05","Der Internist","","46","5","10.1007/s00108-005-1407-8","","2005","http://link.springer.com/article/10.1007/s00108-005-1407-8","Article"
"Verification of Careflow Management Systems with Timed BDI
              
                CTL
               Logic","Business Process Management Workshops","","","","10.1007/978-3-642-12186-9_60","Keith MillerWendy MacCaull","2010","http://link.springer.com/chapter/10.1007/978-3-642-12186-9_60","Chapter"
"Mitteilungen des BDI 07/2005","Der Internist","","46","7","10.1007/s00108-005-1445-2","","2005","http://link.springer.com/article/10.1007/s00108-005-1445-2","Article"
"On the Relationship between BDI Logics and Standard Logics of Concurrency","Intelligent Agents V: Agents Theories, Architectures, and Languages","","","","10.1007/3-540-49057-4_4","Klaus Schild","1999","http://link.springer.com/chapter/10.1007/3-540-49057-4_4","Chapter"
"Mitteilungen des BDI 08/06","Der Internist","","47","8","10.1007/s00108-006-1686-8","","2006","http://link.springer.com/article/10.1007/s00108-006-1686-8","Article"