Item Title,Publication Title,Book Series Title,Journal Volume,Journal Issue,Item DOI,Authors,Publication Year,URL,Content Type
"An Agent Architecture for Planning in a Dynamic Environment","AI*IA 2001: Advances in Artificial Intelligence","","","","10.1007/3-540-45411-X_41","Giuliano ArmanoGiancarlo CherchiEloisa Vargiu","2001","http://link.springer.com/chapter/10.1007/3-540-45411-X_41","Chapter"
"Knowledge and Planning in an Action-Based Multi-agent Framework: A Case Study","Advances in Artificial Intelligence","","","","10.1007/3-540-45153-6_12","Bradley BartJames P. DelgrandeOliver Schulte","2001","http://link.springer.com/chapter/10.1007/3-540-45153-6_12","Chapter"
"Conversational Case-Based Planning for Agent Team Coordination","Case-Based Reasoning Research and Development","","","","10.1007/3-540-44593-5_14","Joseph A. GiampapaKatia Sycara","2001","http://link.springer.com/chapter/10.1007/3-540-44593-5_14","Chapter"
"Efficient Multi-Agent Path Planning","Computer Animation and Simulation 2001","","","","10.1007/978-3-7091-6240-8_14","Okan ArikanStephen ChenneyD. A. Forsyth","2001","http://link.springer.com/chapter/10.1007/978-3-7091-6240-8_14","Chapter"
"Interacting with the Execution Agent","Transactional Agents","","","","10.1007/3-540-45354-7_8","","2001","http://link.springer.com/chapter/10.1007/3-540-45354-7_8","Chapter"
"Overview of Agent Technology","Transactional Agents","","","","10.1007/3-540-45354-7_3","","2001","http://link.springer.com/chapter/10.1007/3-540-45354-7_3","Chapter"
"Agent-Oriented Supply-Chain Management","Information-Based Manufacturing","","","","10.1007/978-1-4615-1599-9_5","Mark S. FoxMihai BarbuceanuRune Teigen","2001","http://link.springer.com/chapter/10.1007/978-1-4615-1599-9_5","Chapter"
"Agent-Based Modeling and Simulation for Hospital Management","Cooperative Agents","","","","10.1007/978-94-017-1177-7_11","Rainer SibbelChristoph Urban","2001","http://link.springer.com/chapter/10.1007/978-94-017-1177-7_11","Chapter"
"ABC2 an Agenda Based Multi-Agent Model for Robots Control and Cooperation","Journal of Intelligent and Robotic Systems","","32","1","10.1023/A:1012009429991","Vicente MatellánDaniel Borrajo","2001","http://link.springer.com/article/10.1023/A%3A1012009429991","Article"
"Enterprise Federation and Its Multi-agent Modelization","E-Commerce Agents","","","","10.1007/3-540-45370-9_18","Huaglory Tianfield","2001","http://link.springer.com/chapter/10.1007/3-540-45370-9_18","Chapter"
"The Netman Agent-Based Architecture for E-Business in Network Organizations","E-Business and Virtual Enterprises","","","","10.1007/978-0-387-35399-9_15","Louis CloutierJean-Marc FrayretSophie D’AmoursBenoît Montreuil","2001","http://link.springer.com/chapter/10.1007/978-0-387-35399-9_15","Chapter"
"Architectures and Idioms: Making Progress in Agent Design","Intelligent Agents VII Agent Theories Architectures and Languages","","","","10.1007/3-540-44631-1_6","Joanna BrysonLynn Andrea Stein","2001","http://link.springer.com/chapter/10.1007/3-540-44631-1_6","Chapter"
"Programming Goal-Driven Web Sites Using an Agent Logic Language","Practical Aspects of Declarative Languages","","","","10.1007/3-540-45241-9_5","Matteo BaldoniCristina BaroglioAlessandro ChiarottoViviana Patti","2001","http://link.springer.com/chapter/10.1007/3-540-45241-9_5","Chapter"
"A Computational Logic Approach to Heterogenous Agent Systems","Logic Programming and Nonmotonic Reasoning","","","","10.1007/3-540-45402-0_1","Jürgen Dix","2001","http://link.springer.com/chapter/10.1007/3-540-45402-0_1","Chapter"
"Requirements for an Agent Based Information System Supporting Variably Coupled Networked Enterprises","E-Business and Virtual Enterprises","","","","10.1007/978-0-387-35399-9_13","Américo L. AzevedoJorge P. SousaAntónio L. Soares","2001","http://link.springer.com/chapter/10.1007/978-0-387-35399-9_13","Chapter"
"Strategy Selection-Based Meta-level Reasoning for Multi-agent Problem-Solving","Agent-Oriented Software Engineering","","","","10.1007/3-540-44564-1_18","K. Suzanne BarberDavid C. HanTse-Hsin Liu","2001","http://link.springer.com/chapter/10.1007/3-540-44564-1_18","Chapter"
"Virtual Enterprise Modeling and Support Infrastructures: Applying Multi-agent System Approaches","Multi-Agent Systems and Applications","","","","10.1007/3-540-47745-4_16","Luis M. Camarinha-MatosHamideh Afsarmanesh","2001","http://link.springer.com/chapter/10.1007/3-540-47745-4_16","Chapter"
"A System Theoretic Approach to Constructing Test Beds for Multi-Agent Systems","Discrete Event Modeling and Simulation Technologies","","","","10.1007/978-1-4757-3554-3_15","A. M. Uhrmacher","2001","http://link.springer.com/chapter/10.1007/978-1-4757-3554-3_15","Chapter"
"Virtual Agent Societies with the mVITAL Intelligent Agent System","Intelligent Virtual Agents","","","","10.1007/3-540-44812-8_10","George AnastassakisThemis PanayiotopoulosTim Ritchings","2001","http://link.springer.com/chapter/10.1007/3-540-44812-8_10","Chapter"
"Tools for Developing and Monitoring Agents in Distributed Multi-agent Systems","Infrastructure for Agents, Multi-Agent Systems, and Scalable Multi-Agent Systems","","","","10.1007/3-540-47772-1_2","John R. GrahamDaniel McHughMichael MersicFoster McGearyM. Victoria WindleyDavid CleaverKeith S. Decker","2001","http://link.springer.com/chapter/10.1007/3-540-47772-1_2","Chapter"
"An Intelligent Pedagogical Agent in CALL","User Modeling 2001","","","","10.1007/3-540-44566-8_46","Ognian Kalaydjiev","2001","http://link.springer.com/chapter/10.1007/3-540-44566-8_46","Chapter"
"FEA agent for multidisciplinary optimization","Structural and Multidisciplinary Optimization","","22","5","10.1007/s00158-001-0157-z","Z. QianC. XueS. Pan","2001","http://link.springer.com/article/10.1007/s00158-001-0157-z","Article"
"An Agent Infrastructure to Build and Evaluate Multi-Agent Systems: The Java Agent Framework and Multi-Agent System Simulator","Infrastructure for Agents, Multi-Agent Systems, and Scalable Multi-Agent Systems","","","","10.1007/3-540-47772-1_11","Regis VincentBryan HorlingVictor Lesser","2001","http://link.springer.com/chapter/10.1007/3-540-47772-1_11","Chapter"
"Scalability of a Transactional Infrastructure for Multi-Agent Systems","Infrastructure for Agents, Multi-Agent Systems, and Scalable Multi-Agent Systems","","","","10.1007/3-540-47772-1_27","Khaled Nagi","2001","http://link.springer.com/chapter/10.1007/3-540-47772-1_27","Chapter"
"Negotiation Algorithms for Multi-agent Interactions","Artificial Intelligence and Symbolic Computation","","","","10.1007/3-540-44990-6_19","Marco A. Arranz","2001","http://link.springer.com/chapter/10.1007/3-540-44990-6_19","Chapter"
"Modularity and Specialized Learning: Mapping between Agent Architectures and Brain Organization","Emergent Neural Computational Architectures Based on Neuroscience","","","","10.1007/3-540-44597-8_7","Joanna BrysonLynn Andrea Stein","2001","http://link.springer.com/chapter/10.1007/3-540-44597-8_7","Chapter"
"Preferring and updating in abductive multi-agent systems","Engineering Societies in the Agents World II","","","","10.1007/3-540-45584-1_5","Pierangelo Dell’AcquaLuís Moniz Pereira","2001","http://link.springer.com/chapter/10.1007/3-540-45584-1_5","Chapter"
"Integrating Conversational Interaction and Constraint Based Reasoning in an Agent Building Shell","Infrastructure for Agents, Multi-Agent Systems, and Scalable Multi-Agent Systems","","","","10.1007/3-540-47772-1_13","Mihai BarbuceanuWai-Kau Lo","2001","http://link.springer.com/chapter/10.1007/3-540-47772-1_13","Chapter"
"The Traveling Agent Problem","Mathematics of Control, Signals and Systems","","14","3","10.1007/PL00009883","Katsuhiro MoizumiGeorge Cybenko","2001","http://link.springer.com/article/10.1007/PL00009883","Article"
"Recommending a Trip Plan by Negotiation with a Software Travel Agent","Cooperative Information Agents V","","","","10.1007/3-540-44799-7_5","Von-Wun SooShu-Hau Liang","2001","http://link.springer.com/chapter/10.1007/3-540-44799-7_5","Chapter"
"Automatic Synthesis of Agent Designs in UML","Formal Approaches to Agent-Based Systems","","","","10.1007/3-540-45484-5_12","Johann SchumannJon Whittle","2001","http://link.springer.com/chapter/10.1007/3-540-45484-5_12","Chapter"
"Dialogue Modelling for a Conversational Agent","AI 2001: Advances in Artificial Intelligence","","","","10.1007/3-540-45656-2_46","Peter WallisHelen MitchardJyotsna DasDamian O’Dea","2001","http://link.springer.com/chapter/10.1007/3-540-45656-2_46","Chapter"
"Agent-Based Support for Handling Environmental and Life-Cycle Issues","Engineering of Intelligent Systems","","","","10.1007/3-540-45517-5_89","Elisabeta ZudorLászló Monostori","2001","http://link.springer.com/chapter/10.1007/3-540-45517-5_89","Chapter"
"An Operational Semantics for a PRS-Like Agent Architecture","AI 2001: Advances in Artificial Intelligence","","","","10.1007/3-540-45656-2_49","Wayne Wobcke","2001","http://link.springer.com/chapter/10.1007/3-540-45656-2_49","Chapter"
"Design-to-Criteria Scheduling: Real-Time Agent Control","Infrastructure for Agents, Multi-Agent Systems, and Scalable Multi-Agent Systems","","","","10.1007/3-540-47772-1_12","Thomas WagnerVictor Lesser","2001","http://link.springer.com/chapter/10.1007/3-540-47772-1_12","Chapter"
"Designing Agent-Based Electronic Employment Markets","Electronic Commerce Research","","1","3","10.1023/A:1011541904948","William R. GatesMark E. Nissen","2001","http://link.springer.com/article/10.1023/A%3A1011541904948","Article"
"AGENT based structural static and dynamic collaborative optimization","Science in China Series E: Technological Sciences","","44","5","10.1007/BF02916732","Peien FengZhongyan QianShuangxia PanJianwei WuQingying Qiu","2001","http://link.springer.com/article/10.1007/BF02916732","Article"
"Adaptive Infrastructures for Agent Integration","Infrastructure for Agents, Multi-Agent Systems, and Scalable Multi-Agent Systems","","","","10.1007/3-540-47772-1_9","David V. PynadathMilind TambeGal A. Kaminka","2001","http://link.springer.com/chapter/10.1007/3-540-47772-1_9","Chapter"
"Multi-agent Infrastructure, Agent Discovery, Middle Agents for Web Services and Interoperation","Multi-Agent Systems and Applications","","","","10.1007/3-540-47745-4_2","Katia Sycara","2001","http://link.springer.com/chapter/10.1007/3-540-47745-4_2","Chapter"
"Optimistic and Disjunctive Agent Design Problems","Intelligent Agents VII Agent Theories Architectures and Languages","","","","10.1007/3-540-44631-1_1","Michael WooldridgePaul E. Dunne","2001","http://link.springer.com/chapter/10.1007/3-540-44631-1_1","Chapter"
"Specialised Agent Applications","Multi-Agent Systems and Applications","","","","10.1007/3-540-47745-4_17","Klaus FischerPetra FunkChristian Ruß","2001","http://link.springer.com/chapter/10.1007/3-540-47745-4_17","Chapter"
"Can Agent-Based Modelling Really be Useful?","Cooperative Agents","","","","10.1007/978-94-017-1177-7_5","Jim E. Doran","2001","http://link.springer.com/chapter/10.1007/978-94-017-1177-7_5","Chapter"
"Formal Agent Development: Framework to System","Formal Approaches to Agent-Based Systems","","","","10.1007/3-540-45484-5_11","Mark d’InvernoMichael Luck","2001","http://link.springer.com/chapter/10.1007/3-540-45484-5_11","Chapter"
"A Market-Based Model for Resource Allocation in Agent Systems","Coordination of Internet Agents","","","","10.1007/978-3-662-04401-8_17","Jonathan BredinDavid KotzDaniela RusRajiv T. MaheswaranÇagri ImerTamer Başar","2001","http://link.springer.com/chapter/10.1007/978-3-662-04401-8_17","Chapter"
"A Multi-Agent Cellular Automata System for Visualising Simulated Pedestrian Activity","Theory and Practical Issues on Cellular Automata","","","","10.1007/978-1-4471-0709-5_4","J. DijkstraH. J. P. TimmermansA. J. Jessurun","2001","http://link.springer.com/chapter/10.1007/978-1-4471-0709-5_4","Chapter"
"Brokering and Matchmaking for Coordination of Agent Societies: A Survey","Coordination of Internet Agents","","","","10.1007/978-3-662-04401-8_8","Matthias KluschKatia Sycara","2001","http://link.springer.com/chapter/10.1007/978-3-662-04401-8_8","Chapter"
"Distributed Trust in Open Multi-agent Systems","Trust in Cyber-societies","","","","10.1007/3-540-45547-7_10","Yosi MassOnn Shehory","2001","http://link.springer.com/chapter/10.1007/3-540-45547-7_10","Chapter"
"Locally perceiving hard global constraints in multi-agent scheduling","Journal of Intelligent Manufacturing","","12","2","10.1023/A:1011212929394","Joaquim ReisNuno MamedeHenrique O'Neill","2001","http://link.springer.com/article/10.1023/A%3A1011212929394","Article"
"An Architecture for Modeling Internet-based Collaborative Agent Systems","Infrastructure for Agents, Multi-Agent Systems, and Scalable Multi-Agent Systems","","","","10.1007/3-540-47772-1_6","Roberto A. FloresRob C. KremerDouglas H. Norrie","2001","http://link.springer.com/chapter/10.1007/3-540-47772-1_6","Chapter"
"Experiments with an Agent-Oriented Reasoning System","KI 2001: Advances in Artificial Intelligence","","","","10.1007/3-540-45422-5_29","Christoph BenzmüllerManfred KerberMateja JamnikVolker Sorge","2001","http://link.springer.com/chapter/10.1007/3-540-45422-5_29","Chapter"
"Agent-Based Infrastructure of Supply Chain Network Management","E-Business and Virtual Enterprises","","","","10.1007/978-0-387-35399-9_21","Charu ChandraAlexander V. SmirnovLeonid B. Sheremetov","2001","http://link.springer.com/chapter/10.1007/978-0-387-35399-9_21","Chapter"
"Agent Theory for Team Formation by Dialogue","Intelligent Agents VII Agent Theories Architectures and Languages","","","","10.1007/3-540-44631-1_11","Frank DignumBarbara Dunin-KepliczRineke Verbrugge","2001","http://link.springer.com/chapter/10.1007/3-540-44631-1_11","Chapter"
"A Distributed Multi-agent Model for Value Nets","Engineering of Intelligent Systems","","","","10.1007/3-540-45517-5_79","Chad DoddSoundar R. T. Kumara","2001","http://link.springer.com/chapter/10.1007/3-540-45517-5_79","Chapter"
"Agent-Based Software Engineering","Agent-Oriented Software Engineering","","","","10.1007/3-540-44564-1_4","Charles Petrie","2001","http://link.springer.com/chapter/10.1007/3-540-44564-1_4","Chapter"
"Multi-Agent Systems","Objective Coordination in Multi-Agent System Engineering","","","","10.1007/3-540-44933-7_2","","2001","http://link.springer.com/chapter/10.1007/3-540-44933-7_2","Chapter"
"Towards Heterogeneous Agent Teams","Multi-Agent Systems and Applications","","","","10.1007/3-540-47745-4_9","Milind TambeDavid V. Pynadath","2001","http://link.springer.com/chapter/10.1007/3-540-47745-4_9","Chapter"
"Equipping a Lifelike Animated Agent with a Mind","Intelligent Virtual Agents","","","","10.1007/3-540-44812-8_7","L. ChenK. BechkoumG. Clapworthy","2001","http://link.springer.com/chapter/10.1007/3-540-44812-8_7","Chapter"
"The Open Agent Architecture","Autonomous Agents and Multi-Agent Systems","","4","1 - 2","10.1023/A:1010091302035","Adam CheyerDavid Martin","2001","http://link.springer.com/article/10.1023/A%3A1010091302035","Article"
"Spatial and Cognitive Simulation with Multi-agent Systems","Spatial Information Theory","","","","10.1007/3-540-45424-1_9","Andrew U. FrankSteffen BittnerMartin Raubal","2001","http://link.springer.com/chapter/10.1007/3-540-45424-1_9","Chapter"
"Simulator Complex for Robocup Rescue Simulation Project — As Test-Bed for Multi-Agent Organizational Behavior in Emergency Case of Large-Scale Disaster","RoboCup 2000: Robot Soccer World Cup IV","","","","10.1007/3-540-45324-5_33","Toshiyuki KanedaFumitoshi MatsunoHironao TakahashiTakeshi MatsuiMasayasu AtsumiMichinori HatayamaKenji TayamaRyousuke ChibaKazunori Takeuchi","2001","http://link.springer.com/chapter/10.1007/3-540-45324-5_33","Chapter"
"Human–Robot Cooperation Using Multi-Agent-Systems","Journal of Intelligent and Robotic Systems","","32","2","10.1023/A:1013901228979","T. LängleH. Wörn","2001","http://link.springer.com/article/10.1023/A%3A1013901228979","Article"
"Multi-agent Systems as Intelligent Virtual Environments","KI 2001: Advances in Artificial Intelligence","","","","10.1007/3-540-45422-5_27","Tim RitchingsGeorge AnastassakisThemis Panayiotopoulos","2001","http://link.springer.com/chapter/10.1007/3-540-45422-5_27","Chapter"
"Agent Programming with Declarative Goals","Intelligent Agents VII Agent Theories Architectures and Languages","","","","10.1007/3-540-44631-1_16","Koen V. HindriksFrank S. de BoerWiebe van der HoekJohn-Jules Ch. Meyer","2001","http://link.springer.com/chapter/10.1007/3-540-44631-1_16","Chapter"
"Extending a Multi-agent System for Genomic Annotation","Cooperative Information Agents V","","","","10.1007/3-540-44799-7_12","Keith DeckerSalim KhanCarl SchmidtDennis Michaud","2001","http://link.springer.com/chapter/10.1007/3-540-44799-7_12","Chapter"
"ActiveCBR: An Agent System That Integrates Case-Based Reasoning and Active Databases","Knowledge and Information Systems","","3","2","10.1007/PL00011667","Sheng LiQiang Yang","2001","http://link.springer.com/article/10.1007/PL00011667","Article"
"Modeling Agent-Based Systems","Formal Approaches to Agent-Based Systems","","","","10.1007/3-540-45484-5_30","Sanda Mandutianu","2001","http://link.springer.com/chapter/10.1007/3-540-45484-5_30","Chapter"
"Comparing the Learning Processes of Cognitive Distance Learning and Search Based Agent","Connectionist Models of Neurons, Learning Processes, and Artificial Intelligence","","","","10.1007/3-540-45720-8_44","Hiroshi YamakawaYuji MiyamotoHiroyuki Okada","2001","http://link.springer.com/chapter/10.1007/3-540-45720-8_44","Chapter"
"A Real Time Object-Oriented Rational Agent Development System","Formal Approaches to Agent-Based Systems","","","","10.1007/3-540-45484-5_35","Leonard P. Wesley","2001","http://link.springer.com/chapter/10.1007/3-540-45484-5_35","Chapter"
"Wireless Agent Guidance of Remote Mobile Robots: Rough Integral Approach to Sensor Signal Analysis","Web Intelligence: Research and Development","","","","10.1007/3-540-45490-X_52","J.F. PetersS. RamannaA. SkowronM. Borkowski","2001","http://link.springer.com/chapter/10.1007/3-540-45490-X_52","Chapter"
"An Agent-Based Approach for Scheduling Multiple Machines","Applied Intelligence","","14","2","10.1023/A:1008363208898","Rama AkkirajuPinar KeskinocakSesh MurthyFrederick Wu","2001","http://link.springer.com/article/10.1023/A%3A1008363208898","Article"
"Software Architecture Attributes of Multi-agent Systems","Agent-Oriented Software Engineering","","","","10.1007/3-540-44564-1_5","Onn Shehory","2001","http://link.springer.com/chapter/10.1007/3-540-44564-1_5","Chapter"
"Balancing Reactivity and Social Deliberation in Multi-Agent Systems — A Short Guide to the Contributions","Balancing Reactivity and Social Deliberation in Multi-Agent Systems","","","","10.1007/3-540-44568-4_1","Markus HannebauerJan WendlerEnrico Pagello","2001","http://link.springer.com/chapter/10.1007/3-540-44568-4_1","Chapter"
"Enhancing Multi-Agent Based Simulation with Human-Like Decision Making Strategies","Multi-Agent-Based Simulation","","","","10.1007/3-540-44561-7_16","Emma NorlingLiz SonenbergRalph Rönnquist","2001","http://link.springer.com/chapter/10.1007/3-540-44561-7_16","Chapter"
"Logical Foundations of Agent-Based Computing","Multi-Agent Systems and Applications","","","","10.1007/3-540-47745-4_3","Wiebe van der Hoek","2001","http://link.springer.com/chapter/10.1007/3-540-47745-4_3","Chapter"
"Agent UML: A Formalism for Specifying Multiagent Software Systems","Agent-Oriented Software Engineering","","","","10.1007/3-540-44564-1_6","*Bernhard Bauer*Jörg P. Müller+James Odell","2001","http://link.springer.com/chapter/10.1007/3-540-44564-1_6","Chapter"
"Machine Learning and Inductive Logic Programming for Multi-agent Systems","Multi-Agent Systems and Applications","","","","10.1007/3-540-47745-4_11","Dimitar KazakovDaniel Kudenko⋆","2001","http://link.springer.com/chapter/10.1007/3-540-47745-4_11","Chapter"
"A Holonic Multi-agent Infrastructure for Electronic Procurement","Advances in Artificial Intelligence","","","","10.1007/3-540-45153-6_2","Andreas GerberChristian Russ","2001","http://link.springer.com/chapter/10.1007/3-540-45153-6_2","Chapter"
"Approaches to Increase the Performance of Agent-Based Production Systems","Engineering of Intelligent Systems","","","","10.1007/3-540-45517-5_68","Botond KádárLászló Monostori","2001","http://link.springer.com/chapter/10.1007/3-540-45517-5_68","Chapter"
"UML for Agent-Oriented Software Development: The Tropos Proposal","≪UML≫ 2001 — The Unified Modeling Language. Modeling Languages, Concepts, and Tools","","","","10.1007/3-540-45441-1_31","John MylopoulosManuel KolpJaelson Castro","2001","http://link.springer.com/chapter/10.1007/3-540-45441-1_31","Chapter"
"Rational Communication in Multi-Agent Environments","Autonomous Agents and Multi-Agent Systems","","4","3","10.1023/A:1011495811107","Piotr J. GmytrasiewiczEdmund H. Durfee","2001","http://link.springer.com/article/10.1023/A%3A1011495811107","Article"
"Tourism as an Agent of Economic Transformation in Southern Europe","Economic Transformation, Democratization and Integration into the European Union","","","","10.1057/9780333977613_4","Allan M. Williams","2001","http://link.springer.com/chapter/10.1057/9780333977613_4","Chapter"
"L*MASS: A Language for Situated Multi-agent Systems","AI*IA 2001: Advances in Artificial Intelligence","","","","10.1007/3-540-45411-X_25","Stefania BandiniSara ManzoniGiulio PavesiCarla Simone","2001","http://link.springer.com/chapter/10.1007/3-540-45411-X_25","Chapter"
"Reliable Agent Computation: An Algebraic Approach","Intelligent Agents: Specification, Modeling, and Applications","","","","10.1007/3-540-44637-0_3","David Kinny","2001","http://link.springer.com/chapter/10.1007/3-540-44637-0_3","Chapter"
"A Mobile Agent Approach to Process-Based Dynamic Adaptation of Complex Software Systems","Software Process Technology","","","","10.1007/3-540-45752-6_9","Giuseppe ValettoGail KaiserGaurav S. Kc","2001","http://link.springer.com/chapter/10.1007/3-540-45752-6_9","Chapter"
"Agent-Based Supply Chain Integration","Information Technology and Management","","2","3","10.1023/A:1011449109160","Mark E. Nissen","2001","http://link.springer.com/article/10.1023/A%3A1011449109160","Article"
"Going Public and the Sale of Shares with Heterogeneous Investors: Agent‐Based Computational Modelling and Computer Simulations","Group Decision and Negotiation","","10","5","10.1023/A:1011871430501","Pietro PanzarasaNicholas R. JenningsTimothy J. Norman","2001","http://link.springer.com/article/10.1023/A%3A1011871430501","Article"
"Integrating High-Level and Detailed Agent Coordination into a Layered Architecture","Infrastructure for Agents, Multi-Agent Systems, and Scalable Multi-Agent Systems","","","","10.1007/3-540-47772-1_8","XiaoQin ZhangAnita RajaBarbara LernerVictor LesserLeon OsterweilThomas Wagner","2001","http://link.springer.com/chapter/10.1007/3-540-47772-1_8","Chapter"
"Agent-Oriented Language Engineering for Robust NLP","Engineering Societies in the Agents World II","","","","10.1007/3-540-45584-1_7","Vincenzo PallottaAfzal Ballim","2001","http://link.springer.com/chapter/10.1007/3-540-45584-1_7","Chapter"
"Adding Extensible Synchronisation Capabilities to the Agent Model of a FIPA Compliant Agent Platform","Agent-Oriented Software Engineering","","","","10.1007/3-540-44564-1_20","Agostino PoggiGiovanni Rimassa","2001","http://link.springer.com/chapter/10.1007/3-540-44564-1_20","Chapter"
"Representing Agent Interaction Protocols in UML","Agent-Oriented Software Engineering","","","","10.1007/3-540-44564-1_8","James J. OdellH. Van Dyke ParunakBernhard Bauer","2001","http://link.springer.com/chapter/10.1007/3-540-44564-1_8","Chapter"
"Radioiodinated N-[3-(4-morpholino)propyl]-N-methyl-2-hydroxy-5-iodo-3-methylbenzylamine (ERC9): a new potential melanoma imaging agent","European Journal of Nuclear Medicine","","28","4","10.1007/s002590000455","Thomas G. SalopekJohn R. ScottAlummoottil V. JoshuaMichael SmylieJ. Wayne LogusCarrie A. MorinAlexander J.B. McEwan","2001","http://link.springer.com/article/10.1007/s002590000455","Article"
"Scheduling of Production Using the Multi-agent Approach by Hierarchical Structure","Engineering of Intelligent Systems","","","","10.1007/3-540-45517-5_69","B. FrankovicT. T. Dang","2001","http://link.springer.com/chapter/10.1007/3-540-45517-5_69","Chapter"
"To Bid or Not To Bid Agent Strategies in Electronic Auction Games","Agent-Mediated Electronic Commerce III","","","","10.1007/3-540-44723-7_12","Javier BéjarJuan A.","2001","http://link.springer.com/chapter/10.1007/3-540-44723-7_12","Chapter"
"Determining the Envelope of Emergent Agent Behaviour via Architectural Transformation","Intelligent Agents VII Agent Theories Architectures and Languages","","","","10.1007/3-540-44631-1_9","Oswaldo TeránBruce EdmondsSteve Wallis","2001","http://link.springer.com/chapter/10.1007/3-540-44631-1_9","Chapter"
"An Adaptive Agent Society for Environmental Scanning through the Internet","Intelligent Agents: Specification, Modeling, and Applications","","","","10.1007/3-540-44637-0_10","Rey-Long Liu","2001","http://link.springer.com/chapter/10.1007/3-540-44637-0_10","Chapter"
"Hybrid Learning Communities in Agent-Based Intelligent Distributed Learning Environments","Cooperative Agents","","","","10.1007/978-94-017-1177-7_10","Andreas Harrer","2001","http://link.springer.com/chapter/10.1007/978-94-017-1177-7_10","Chapter"
"Sociology and Social Theory in Agent Based Social Simulation: A Symposium","Computational & Mathematical Organization Theory","","7","3","10.1023/A:1012919018402","Rosaria ConteBruce EdmondsScott MossR. Keith Sawyer","2001","http://link.springer.com/article/10.1023/A%3A1012919018402","Article"
"A Connectionist-Symbolic Approach to Modeling Agent Behavior: Neural Networks Grouped by Contexts","Modeling and Using Context","","","","10.1007/3-540-44607-9_15","Amy E. HenningerAvelino J. GonzalezMichael GeorgiopoulosRonald F. DeMara","2001","http://link.springer.com/chapter/10.1007/3-540-44607-9_15","Chapter"
"Agent-Based Simulation of Animal Behaviour","Applied Intelligence","","15","2","10.1023/A:1011246304650","Catholijn M. JonkerJan Treur","2001","http://link.springer.com/article/10.1023/A%3A1011246304650","Article"
"Data Warehouse Quality and Agent Technology","Cooperative Information Agents V","","","","10.1007/3-540-44799-7_8","Matthias Jarke","2001","http://link.springer.com/chapter/10.1007/3-540-44799-7_8","Chapter"
"Reliable Agent Communication — A pragmatic perspective","New Generation Computing","","19","2","10.1007/BF03037251","David Kinny","2001","http://link.springer.com/article/10.1007/BF03037251","Article"
"Intelligent Virtual Agent Societies on the Internet","Intelligent Virtual Agents","","","","10.1007/3-540-44812-8_9","F. Alonso AmoF. Fernández VelascoG. López GómezJ. P. Rojas JiménezF. J. Soriano Camino","2001","http://link.springer.com/chapter/10.1007/3-540-44812-8_9","Chapter"
"Agent-Based Social Simulation in Markets","Electronic Commerce Research","","1","1 - 2","10.1023/A:1011531814366","Koen BertelsMagnus Boman","2001","http://link.springer.com/article/10.1023/A%3A1011531814366","Article"
"A Hierarchical Fuzzy Genetic Multi-Agent Architecture for Intelligent Buildings Sensing and Control","Developments in Soft Computing","","","","10.1007/978-3-7908-1829-1_24","Hani HagrasVictor CallaghanMartin ColleyGraham Clarke","2001","http://link.springer.com/chapter/10.1007/978-3-7908-1829-1_24","Chapter"
"Security Infrastructure for Software Agent Society","Trust and Deception in Virtual Societies","","","","10.1007/978-94-017-3614-5_7","Qi HeKatia P. SycaraZhongmin Su","2001","http://link.springer.com/chapter/10.1007/978-94-017-3614-5_7","Chapter"
"The MadKit Agent Platform Architecture","Infrastructure for Agents, Multi-Agent Systems, and Scalable Multi-Agent Systems","","","","10.1007/3-540-47772-1_5","Olivier GutknechtJacques Ferber","2001","http://link.springer.com/chapter/10.1007/3-540-47772-1_5","Chapter"
"The Agent Landscape","Understanding Agent Systems","","","","10.1007/978-3-662-04607-4_1","Mark d’InvernoMichael Luck","2001","http://link.springer.com/chapter/10.1007/978-3-662-04607-4_1","Chapter"
"Exception Handling in Agent-Oriented Systems","Advances in Exception Handling Techniques","","","","10.1007/3-540-45407-1_8","Anand TripathiRobert Miller","2001","http://link.springer.com/chapter/10.1007/3-540-45407-1_8","Chapter"
"Fast Function Approximation with Hierarchical Neural Networks and Their Application to a Reinforcement Learning Agent","Connectionist Models of Neurons, Learning Processes, and Artificial Intelligence","","","","10.1007/3-540-45720-8_42","Joern FischerRalph BreithauptMathias Bode","2001","http://link.springer.com/chapter/10.1007/3-540-45720-8_42","Chapter"
"A Layered Agent Template for Enterprise Computing","Infrastructure for Agents, Multi-Agent Systems, and Scalable Multi-Agent Systems","","","","10.1007/3-540-47772-1_19","Carmen M. PancerellaNina M. Berry","2001","http://link.springer.com/chapter/10.1007/3-540-47772-1_19","Chapter"
"Emotions and Personality in Agent Design and Modeling","User Modeling 2001","","","","10.1007/3-540-44566-8_32","Piotr J. GmytrasiewiczChristine L. Lisetti","2001","http://link.springer.com/chapter/10.1007/3-540-44566-8_32","Chapter"
"Agent-Based Social Simulation with Coalitions in Social Reasoning","Multi-Agent-Based Simulation","","","","10.1007/3-540-44561-7_18","Nuno DavidJaime Simão SichmanHelder Coelho","2001","http://link.springer.com/chapter/10.1007/3-540-44561-7_18","Chapter"
"A Distributed Multi-agent System for the Self-Evaluation of Dialogs","New Frontiers in Artificial Intelligence","","","","10.1007/3-540-45548-5_6","Alain Cardon","2001","http://link.springer.com/chapter/10.1007/3-540-45548-5_6","Chapter"
"Li & Fung, Ltd.: An Agent of Global Production","Global Production and Trade in East Asia","","","","10.1007/978-1-4615-1625-5_19","Leonard K. Cheng","2001","http://link.springer.com/chapter/10.1007/978-1-4615-1625-5_19","Chapter"
"Multi-Agent Environment for Hybrid AI Models","Artificial Neural Nets and Genetic Algorithms","","","","10.1007/978-3-7091-6230-9_89","Roman NerudaPavel KrušinaZuzana Petrová","2001","http://link.springer.com/chapter/10.1007/978-3-7091-6230-9_89","Chapter"
"Agent Based Architecture for Internet Marketing","Advances in Artificial Intelligence. PRICAI 2000 Workshop Reader","","","","10.1007/3-540-45408-X_17","Sukunesan SinnappanMary-Anne WilliamsSiva Muthaly","2001","http://link.springer.com/chapter/10.1007/3-540-45408-X_17","Chapter"
"An Adaptive User-Interface-Agent Modeling Communication Availability","User Modeling 2001","","","","10.1007/3-540-44566-8_13","Silke Höppner","2001","http://link.springer.com/chapter/10.1007/3-540-44566-8_13","Chapter"
"Frameworks for Reasoning about Agent Based System","Infrastructure for Agents, Multi-Agent Systems, and Scalable Multi-Agent Systems","","","","10.1007/3-540-47772-1_7","Leon J. OsterweilLori A. Clarke","2001","http://link.springer.com/chapter/10.1007/3-540-47772-1_7","Chapter"
"A Multi-Agent Fuzzy Cognitive Tool For Reengineering Manufacturing Systems","Engineering of Intelligent Systems","","","","10.1007/3-540-45517-5_92","Julio Macedo","2001","http://link.springer.com/chapter/10.1007/3-540-45517-5_92","Chapter"
"Extending Multi-agent Cooperation by Overhearing","Cooperative Information Systems","","","","10.1007/3-540-44751-2_5","Paolo BusettaLuciano SerafiniDhirendra SinghFloriano Zini","2001","http://link.springer.com/chapter/10.1007/3-540-44751-2_5","Chapter"
"Agent-based integrated assessment modelling: the example of climate change","Integrated Assessment","","2","1","10.1023/A:1011527523183","Scott MossClaudia Pahl-WostlThomas Downing","2001","http://link.springer.com/article/10.1023/A%3A1011527523183","Article"
"Agent-Mediated Electronic Commerce: Scientific and Technological Roadmap","Agent Mediated Electronic Commerce","","","","10.1007/3-540-44682-6_1","Carles SierraFrank Dignum","2001","http://link.springer.com/chapter/10.1007/3-540-44682-6_1","Chapter"
"The Church as an Agent of Help in the Battle Against Late Life Depression","Pastoral Psychology","","50","2","10.1023/A:1012266415396","Keith A. PufferKristi J. Miller","2001","http://link.springer.com/article/10.1023/A%3A1012266415396","Article"
"A Communication Protocol Supporting Dynamic Autonomy Agreements in Multi-agent Systems","Advances in Artificial Intelligence. PRICAI 2000 Workshop Reader","","","","10.1007/3-540-45408-X_31","K. Suzanne BarberCheryl E. MartinRyan M. McKay","2001","http://link.springer.com/chapter/10.1007/3-540-45408-X_31","Chapter"
"Agent-Based Approach to e-Learning: An Architectural Framework","The Human Society and the Internet Internet-Related Socio-Economic Issues","","","","10.1007/3-540-47749-7_28","Elvis Wai Chung LeungQing Li","2001","http://link.springer.com/chapter/10.1007/3-540-47749-7_28","Chapter"
"Species Concept in Sarocladium, the Causal Agent of Sheath Rot in Rice and Bamboo Blight","Major Fungal Diseases of Rice","","","","10.1007/978-94-017-2157-8_20","D. A. PearceP. D. BridgeD. L. Hawksworth","2001","http://link.springer.com/chapter/10.1007/978-94-017-2157-8_20","Chapter"
"RescueModel: A Multi-Agent Simulation of Bushfire Disaster Management","RoboCup 2000: Robot Soccer World Cup IV","","","","10.1007/3-540-45324-5_27","Gary AuSimon GossClint HeinzeAdrian R. Pearce","2001","http://link.springer.com/chapter/10.1007/3-540-45324-5_27","Chapter"
"A Modelling Approach for Agent Based Systems Design","Agent-Oriented Software Engineering","","","","10.1007/3-540-44564-1_13","Omer F. Rana","2001","http://link.springer.com/chapter/10.1007/3-540-44564-1_13","Chapter"
"Sequential Strategy for Learning Multi-stage Multi-agent Collaborative Games","Artificial Neural Networks — ICANN 2001","","","","10.1007/3-540-44668-0_121","W. Andy Wright","2001","http://link.springer.com/chapter/10.1007/3-540-44668-0_121","Chapter"
"Towards an Agent-based Distributed Hierarchical Network Management System for All-Optical Networks","Mobile Agents for Telecommunication Applications","","","","10.1007/3-540-44651-6_11","Bilal KhanDardo D. KleinerDavid Talmage","2001","http://link.springer.com/chapter/10.1007/3-540-44651-6_11","Chapter"
"A Mobile-Agent Based Architecture for Virtual Enterprises","E-Business and Virtual Enterprises","","","","10.1007/978-0-387-35399-9_16","Luís BritoJosé NevesFrancisco Moura","2001","http://link.springer.com/chapter/10.1007/978-0-387-35399-9_16","Chapter"
"Agent Software Engineering with Role Modelling","Agent-Oriented Software Engineering","","","","10.1007/3-540-44564-1_10","Elizabeth A. Kendall","2001","http://link.springer.com/chapter/10.1007/3-540-44564-1_10","Chapter"
"Agent-based Architecture for Flexible Lean Cell Design, Analysis and Evaluation","Global Engineering, Manufacturing and Enterprise Networks","","","","10.1007/978-0-387-35412-5_21","T. E. PotokN. D. IvezicN. F. Samatova","2001","http://link.springer.com/chapter/10.1007/978-0-387-35412-5_21","Chapter"
"Retention mechanism of hypoxia selective nuclear imaging/radiotherapeutic agent Cu-diacetyl-bis(N
                     4-methylthiosemicarbazone) (Cu-ATSM) in tumor cells","Annals of Nuclear Medicine","","15","6","10.1007/BF02988502","Atsushi ObataEiji YoshimiAtsuo WakiJason S. LewisNobuyuki OyamaMichael J. WelchHideo SajiYoshiharu YonekuraYasuhisa Fujibayashi","2001","http://link.springer.com/article/10.1007/BF02988502","Article"
"An Agent-Based Soft Computing Society","Rough Sets and Current Trends in Computing","","","","10.1007/3-540-45554-X_84","Chengqi ZhangZili ZhangOng Swee San","2001","http://link.springer.com/chapter/10.1007/3-540-45554-X_84","Chapter"
"Scheduling, Re-scheduling and Communication in the Multi-agent Extended Enterprise Environment","Progress in Artificial Intelligence","","","","10.1007/3-540-45329-6_23","Joaquim ReisNuno Mamede","2001","http://link.springer.com/chapter/10.1007/3-540-45329-6_23","Chapter"
"Agent Technologies for the Development of Adaptive Web Stores","Agent Mediated Electronic Commerce","","","","10.1007/3-540-44682-6_11","Liliana ArdissonoAnna GoyGiovanna PetroneMarino SegnanLuca ConsoleLeonardo LesmoCarla SimonePietro Torasso","2001","http://link.springer.com/chapter/10.1007/3-540-44682-6_11","Chapter"
"A Fault-Tolerant Scheme of Multi-agent System for Worker Agents","Active Media Technology","","","","10.1007/3-540-45336-9_21","YunHee KangHoSang HamChongSun Hwang","2001","http://link.springer.com/chapter/10.1007/3-540-45336-9_21","Chapter"
"Agent-Oriented Enterprise Modeling Based on Business Rules","Conceptual Modeling — ER 2001","","","","10.1007/3-540-45581-7_39","Kuldar TaveterGerd Wagner","2001","http://link.springer.com/chapter/10.1007/3-540-45581-7_39","Chapter"
"Gaz-Guide: Agent-Mediated Information Retrieval for Official Gazettes","Intelligent Agents: Specification, Modeling, and Applications","","","","10.1007/3-540-44637-0_11","Jyi-Shane LiuVon-Won SooChia-Ning ChiangChen-Yu LeeChun-Yu Lin","2001","http://link.springer.com/chapter/10.1007/3-540-44637-0_11","Chapter"
"Change agent skills","Management Skills for Project Leaders","","","","10.1007/978-3-0348-8260-6_9","Marie-Claude Foster","2001","http://link.springer.com/chapter/10.1007/978-3-0348-8260-6_9","Chapter"
"Separation of Concerns in Mobile Agent Applications","Metalevel Architectures and Separation of Crosscutting Concerns","","","","10.1007/3-540-45429-2_7","Naoyasu UbayashiTetsuo Tamai","2001","http://link.springer.com/chapter/10.1007/3-540-45429-2_7","Chapter"
"Developing Multi-agent Systems with JADE","Intelligent Agents VII Agent Theories Architectures and Languages","","","","10.1007/3-540-44631-1_7","Fabio BellifemineAgostino PoggiGiovanni Rimassa","2001","http://link.springer.com/chapter/10.1007/3-540-44631-1_7","Chapter"
"Introducing the Adaptive Agent Oriented Software Architecture and Its Application in Natural Language User Interfaces","Agent-Oriented Software Engineering","","","","10.1007/3-540-44564-1_19","*Babak Hodjat†Makoto Amamiyat","2001","http://link.springer.com/chapter/10.1007/3-540-44564-1_19","Chapter"
"Contractual Agent Societies","Social Order in Multiagent Systems","","","","10.1007/978-1-4615-1555-5_6","Chrysanthos DellarocasMark Klein","2001","http://link.springer.com/chapter/10.1007/978-1-4615-1555-5_6","Chapter"
"Fuzzy-Neural-Genetic Layered Multi-Agent Reactive Control of Robotic Soccer","Data Mining for Design and Manufacturing","","","","10.1007/978-1-4757-4911-3_18","Andon V. TopalovSpyros G. Tzafestas","2001","http://link.springer.com/chapter/10.1007/978-1-4757-4911-3_18","Chapter"
"Design and Mathematical Analysis of Agent-Based Systems","Formal Approaches to Agent-Based Systems","","","","10.1007/3-540-45484-5_18","Kristina Lerman","2001","http://link.springer.com/chapter/10.1007/3-540-45484-5_18","Chapter"
"Modelling Agent Societies: Co-ordination Frameworks and Institutions","Progress in Artificial Intelligence","","","","10.1007/3-540-45329-6_21","Virginia DignumFrank Dignum","2001","http://link.springer.com/chapter/10.1007/3-540-45329-6_21","Chapter"
"Syntax-Directed Translation Schemes for Multi-Agent Systems Conversation Modelling","Enterprise Information Systems II","","","","10.1007/978-94-017-1427-3_13","Ana FredJoaquim Filipe","2001","http://link.springer.com/chapter/10.1007/978-94-017-1427-3_13","Chapter"
"Designing Agent-Oriented Systems by Analysing Agent Interactions","Agent-Oriented Software Engineering","","","","10.1007/3-540-44564-1_11","Simon MilesMike JoyMichael Luck","2001","http://link.springer.com/chapter/10.1007/3-540-44564-1_11","Chapter"
"Using Explicit, A Priori Contextual Knowledge in an Intelligent Web Search Agent","Modeling and Using Context","","","","10.1007/3-540-44607-9_26","Roy M. TurnerElise H. TurnerThomas A. WagnerThomas J. WheelerNancy E. Ogle","2001","http://link.springer.com/chapter/10.1007/3-540-44607-9_26","Chapter"
"Strategic Multi-Personal-Agent Interaction","Intelligent Agents: Specification, Modeling, and Applications","","","","10.1007/3-540-44637-0_7","Aizhong (Alan) Lin","2001","http://link.springer.com/chapter/10.1007/3-540-44637-0_7","Chapter"
"Specification of Heterogeneous Agent Architectures","Intelligent Agents VII Agent Theories Architectures and Languages","","","","10.1007/3-540-44631-1_19","Simone MariniMaurizio MartelliViviana MascardiFloriano Zini","2001","http://link.springer.com/chapter/10.1007/3-540-44631-1_19","Chapter"
"From agent theory to agent implementation","Wirtschaftsinformatik","","43","2","10.1007/BF03250796","Dr. Franziska Klügl","2001","http://link.springer.com/article/10.1007/BF03250796","Article"
"Editorial Introduction: Messy Systems ‐ The Target for Multi Agent Based Simulation","Multi-Agent-Based Simulation","","","","10.1007/3-540-44561-7_1","Scott Moss","2001","http://link.springer.com/chapter/10.1007/3-540-44561-7_1","Chapter"
"Using the Cross-Entropy Method to Guide/Govern Mobile Agent’s Path Finding in Networks","Mobile Agents for Telecommunication Applications","","","","10.1007/3-540-44651-6_24","Bjarne E. HelvikOtto Wittner","2001","http://link.springer.com/chapter/10.1007/3-540-44651-6_24","Chapter"
"Agent Coordination via Scripting Languages","Coordination of Internet Agents","","","","10.1007/978-3-662-04401-8_6","Jean-Guy SchneiderMarkus LumpeOscar Nierstrasz","2001","http://link.springer.com/chapter/10.1007/978-3-662-04401-8_6","Chapter"
"Toward a Multi-agent Modelling Approach for Urban Public Transportation systems","Engineering Societies in the Agents World II","","","","10.1007/3-540-45584-1_11","Flavien BalboSuzanne Pinson","2001","http://link.springer.com/chapter/10.1007/3-540-45584-1_11","Chapter"
"Combination oral agent and insulin therapy for type 2 diabetes mellitus","Current Diabetes Reports","","1","2","10.1007/s11892-001-0021-y","Maureen D. Passaro MDRobert E. Ratner MD","2001","http://link.springer.com/article/10.1007/s11892-001-0021-y","Article"
"Clinical and Cost Effectiveness of a New Hepatocellular MRI Contrast Agent, Mangafodipir Trisodium, in the Preoperative Assessment of Liver Resectability","Annals of Surgical Oncology","","8","7","10.1007/s10434-001-0573-8","Gary N. Mann MDHoward F. Marx MDLily L. Lai MDLawrence D. Wagman MD","2001","http://link.springer.com/article/10.1007/s10434-001-0573-8","Article"
"A Self-adaptable Agent System for Efficient Information Gathering","Mobile Agents for Telecommunication Applications","","","","10.1007/3-540-44651-6_14","Antonio LiottaGeorge PavlouGraham Knight","2001","http://link.springer.com/chapter/10.1007/3-540-44651-6_14","Chapter"
"E-Partner: A Photo-Realistic Conversation Agent","Advances in Multimedia Information Processing — PCM 2001","","","","10.1007/3-540-45453-5_34","Bo ZhangChangbo HuQingsheng CaiBaining GuoHarry Shum","2001","http://link.springer.com/chapter/10.1007/3-540-45453-5_34","Chapter"
"Building distributed web GIS: a mobile-agent based approach","Wuhan University Journal of Natural Sciences","","6","1 - 2","10.1007/BF03160287","Guan Ji-hongZhou Shui-gengBian Fu-lingMeng Ling-kui","2001","http://link.springer.com/article/10.1007/BF03160287","Article"
"An Organizational Semiotics Perspective for Norm-Based Agent Design","Social Order in Multiagent Systems","","","","10.1007/978-1-4615-1555-5_7","Joaquim FilipeKecheng Liu","2001","http://link.springer.com/chapter/10.1007/978-1-4615-1555-5_7","Chapter"
"Agent-Based Brokerage for Virtual Enterprise Creation in the Moulds Industry","E-Business and Virtual Enterprises","","","","10.1007/978-0-387-35399-9_27","Ricardo J. RabeloLuis M. Camarinha-MatosRolando V. Vallejos","2001","http://link.springer.com/chapter/10.1007/978-0-387-35399-9_27","Chapter"
"A Programming Logic for Part of the Agent Language 3APL","Formal Approaches to Agent-Based Systems","","","","10.1007/3-540-45484-5_6","Koen V. HindriksFrank S. de BoerWiebe van der HoekJohn-Jules C. Meyer","2001","http://link.springer.com/chapter/10.1007/3-540-45484-5_6","Chapter"
"A distributed approach to design open multi-agent systems","Engineering Societies in the Agents World II","","","","10.1007/3-540-45584-1_3","Laurent Vercouter","2001","http://link.springer.com/chapter/10.1007/3-540-45584-1_3","Chapter"
"Agent Naming and Coordination: Actor Based Models and Infrastructures","Coordination of Internet Agents","","","","10.1007/978-3-662-04401-8_9","Gul AghaNadeem JamaliCarlos Varela","2001","http://link.springer.com/chapter/10.1007/978-3-662-04401-8_9","Chapter"
"Scalability Metrics and Analysis of Mobile Agent Systems","Infrastructure for Agents, Multi-Agent Systems, and Scalable Multi-Agent Systems","","","","10.1007/3-540-47772-1_24","Murray Woodside","2001","http://link.springer.com/chapter/10.1007/3-540-47772-1_24","Chapter"
"Federated Multi-Agent Scheduling in Virtual Enterprises","E-Business and Virtual Enterprises","","","","10.1007/978-0-387-35399-9_14","Ricardo J. RabeloHamideh AfsarmaneshLuis M. Camarinha-Matos","2001","http://link.springer.com/chapter/10.1007/978-0-387-35399-9_14","Chapter"
"How Can SQL Server Agent Make Life Easier?","The Handbook for Reluctant Database Administrators","","","","10.1007/978-1-4302-1146-4_12","Josef Finsel","2001","http://link.springer.com/chapter/10.1007/978-1-4302-1146-4_12","Chapter"
"Producing Non-verbal Output for an Embodied Agent in an Intelligent Tutoring System","Computational Science - ICCS 2001","","","","10.1007/3-540-45718-6_41","Roger NkambouYan Laporte","2001","http://link.springer.com/chapter/10.1007/3-540-45718-6_41","Chapter"
"Artificial Agent Action in Markets","Electronic Commerce Research","","1","1 - 2","10.1023/A:1011583831204","Magnus BomanLisa BrouwersKarin HanssonCarl-Gustaf JanssonJohan KummenejeHarko Verhagen","2001","http://link.springer.com/article/10.1023/A%3A1011583831204","Article"
"An Effective Conversational Agent with User Modeling Based on Bayesian Network","Web Intelligence: Research and Development","","","","10.1007/3-540-45490-X_54","Seung-Ik LeeChul SungSung-Bae Cho","2001","http://link.springer.com/chapter/10.1007/3-540-45490-X_54","Chapter"
"Mobile-Agent Based Distributed Web GIS","Cooperative Information Systems","","","","10.1007/3-540-44751-2_6","Jihong GuanShuigeng ZhouAoying Zhou","2001","http://link.springer.com/chapter/10.1007/3-540-44751-2_6","Chapter"
"SYROCO: A novel multi-agent shop-floor control system","Journal of Intelligent Manufacturing","","12","3","10.1023/A:1011261328476","D. RoyD. AnciauxF. Vernadat","2001","http://link.springer.com/article/10.1023/A%3A1011261328476","Article"
"A Context/Communication Information Agent","Personal and Ubiquitous Computing","","5","1","10.1007/s007790170037","Jason I. HongJames A. Landay","2001","http://link.springer.com/article/10.1007/s007790170037","Article"
"Fuzzy Logic for Behaviour Co-ordination and Multi-Agent Formation in RoboCup","Developments in Soft Computing","","","","10.1007/978-3-7908-1829-1_23","Hakan DumanHuosheng Hu","2001","http://link.springer.com/chapter/10.1007/978-3-7908-1829-1_23","Chapter"
"Agent-Oriented Software Engineering: The State of the Art","Agent-Oriented Software Engineering","","","","10.1007/3-540-44564-1_1","Michael WooldridgeyPaolo Ciancarini","2001","http://link.springer.com/chapter/10.1007/3-540-44564-1_1","Chapter"
"Agent Strategies on DPB Auction Tournaments","Agent-Mediated Electronic Commerce III","","","","10.1007/3-540-44723-7_11","Javier BéjarUlises Cortés","2001","http://link.springer.com/chapter/10.1007/3-540-44723-7_11","Chapter"
"Multi-agent FX-Market Modeling Based on Cognitive Systems","Artificial Neural Networks — ICANN 2001","","","","10.1007/3-540-44668-0_107","Georg ZimmermannRalph NeuneierRalph Grothmann","2001","http://link.springer.com/chapter/10.1007/3-540-44668-0_107","Chapter"
"Agent-Based Model of Computer Network Security System: A Case Study","Information Assurance in Computer Networks","","","","10.1007/3-540-45116-1_7","Vladimir I. GorodetskiO. KarsayevA. KhabalovI. KotenkoLeonard J. PopyackVictor Skormin","2001","http://link.springer.com/chapter/10.1007/3-540-45116-1_7","Chapter"
"A Policy Management System for Mobile Agent-Based Services","Mobile Agents for Telecommunication Applications","","","","10.1007/3-540-44651-6_12","Mouhsine LakhdissiHamid HarroudAhmed KarmouchCliff Grossner","2001","http://link.springer.com/chapter/10.1007/3-540-44651-6_12","Chapter"
"Deploying Distributed State Information in Mobile Agent Systems","Cooperative Information Systems","","","","10.1007/3-540-44751-2_8","Ralf-Dieter SchimkatMichael FriedrichWolfgang Küchlin","2001","http://link.springer.com/chapter/10.1007/3-540-44751-2_8","Chapter"
"Modeling Agent Systems by Bayesian Belief Networks","Formal Approaches to Agent-Based Systems","","","","10.1007/3-540-45484-5_31","Yun Peng","2001","http://link.springer.com/chapter/10.1007/3-540-45484-5_31","Chapter"
"Analysis of the KQML model in multi-agent interaction","Journal of Zhejiang University-SCIENCE A","","2","2","10.1631/jzus.2001.0132","Liu Hai-longWu Tie-jun","2001","http://link.springer.com/article/10.1631/jzus.2001.0132","Article"
"The smart Agent Framework","Understanding Agent Systems","","","","10.1007/978-3-662-04607-4_2","Mark d’InvernoMichael Luck","2001","http://link.springer.com/chapter/10.1007/978-3-662-04607-4_2","Chapter"
"Evolving Multi-agent Viewpoints — An Architecture","Progress in Artificial Intelligence","","","","10.1007/3-540-45329-6_19","Pierangelo Dell’AcquaJoão Alexandre LeiteLuís Moniz Pereira","2001","http://link.springer.com/chapter/10.1007/3-540-45329-6_19","Chapter"
"Single-agent therapy with oral mercaptopurine for nonlymphoid blast crisis of chronic myeloid leukemia","Annals of Hematology","","80","9","10.1007/s002770100336","J.-C. Hernández-BoludaF. CervantesA. AlvarezD. CostaE. Montserrat","2001","http://link.springer.com/article/10.1007/s002770100336","Article"
"Multi Agent Based Simulation: Beyond Social Simulation","Multi-Agent-Based Simulation","","","","10.1007/3-540-44561-7_7","Paul Davidsson","2001","http://link.springer.com/chapter/10.1007/3-540-44561-7_7","Chapter"
"Local Distributed Agent Matchmaking","Cooperative Information Systems","","","","10.1007/3-540-44751-2_7","Elth OgstonStamatis Vassiliadis","2001","http://link.springer.com/chapter/10.1007/3-540-44751-2_7","Chapter"
"Compatibility and Stability of the Investigational Polypeptide Marine Anticancer Agent Kahalalide F in Infusion Devices","Investigational New Drugs","","19","4","10.1023/A:1010641207791","Bastiaan NuijenMarjan BoumaConsuelo ManadaJosé M. JimenoLuis L. LazaroAuke BultJos H. Beijnen","2001","http://link.springer.com/article/10.1023/A%3A1010641207791","Article"
"An XML-Based Language for Coordination Protocol Description in Multi-agent System","Engineering of Intelligent Systems","","","","10.1007/3-540-45517-5_78","Mao WeiliangSheng HuanyeDingpeng","2001","http://link.springer.com/chapter/10.1007/3-540-45517-5_78","Chapter"
"Multi-agent Robot Learning by Means of Genetic Programming: Solving an Escape Problem","Evolvable Systems: From Biology to Hardware","","","","10.1007/3-540-45443-8_17","Kohsuke YanaiHitoshi Iba","2001","http://link.springer.com/chapter/10.1007/3-540-45443-8_17","Chapter"
"SODA: Societies and Infrastructures in the Analysis and Design of Agent-Based Systems","Agent-Oriented Software Engineering","","","","10.1007/3-540-44564-1_12","Andrea Omicini","2001","http://link.springer.com/chapter/10.1007/3-540-44564-1_12","Chapter"
"Embodying the JACK Agent Architecture","AI 2001: Advances in Artificial Intelligence","","","","10.1007/3-540-45656-2_32","Emma NorlingFrank E. Ritter","2001","http://link.springer.com/chapter/10.1007/3-540-45656-2_32","Chapter"
"Controlling Effective Introns for Multi-Agent Learning by Means of Genetic Programming","Soft Computing Agents","","","","10.1007/978-3-7908-1815-4_3","Hitoshi IbaMakoto Terao","2001","http://link.springer.com/chapter/10.1007/978-3-7908-1815-4_3","Chapter"
"A Formal Description of a Practical Agent for E-Commerce","Agent-Mediated Electronic Commerce III","","","","10.1007/3-540-44723-7_6","Matteo PradellaMarco Colombetti","2001","http://link.springer.com/chapter/10.1007/3-540-44723-7_6","Chapter"
"A Multi-Agent Based Simulation of Sand Piles in a Static Equilibrium","Multi-Agent-Based Simulation","","","","10.1007/3-540-44561-7_8","Laurent BretonZucker Jean-DanielEric Clément","2001","http://link.springer.com/chapter/10.1007/3-540-44561-7_8","Chapter"
"A Semiotic Approach for Distinguishing Responsibilities in Agent-Based Systems","Information, Organisation and Technology","","","","10.1007/978-1-4615-1655-2_6","Samuel ChongKecheng Liu","2001","http://link.springer.com/chapter/10.1007/978-1-4615-1655-2_6","Chapter"
"Privacy Incorporated Software Agent (PISA): Proposal for Building a Privacy Guardian for the Electronic Age","Designing Privacy Enhancing Technologies","","","","10.1007/3-540-44702-4_8","John J. Borking","2001","http://link.springer.com/chapter/10.1007/3-540-44702-4_8","Chapter"
"U-Mart: A Test Bed for Interdisciplinary Research into Agent-Based Artificial Markets","Evolutionary Controversies in Economics","","","","10.1007/978-4-431-67903-5_13","Hiroshi SatoYuhsuke KoyamaKoichi KurumataniYoshinori ShiozawaHiroshi Deguchi","2001","http://link.springer.com/chapter/10.1007/978-4-431-67903-5_13","Chapter"
"Evaluating Resource Bundle Derivatives for Multi-agent Negotiation of Resource Allocation","E-Commerce Agents","","","","10.1007/3-540-45370-9_9","Lars Rasmusson","2001","http://link.springer.com/chapter/10.1007/3-540-45370-9_9","Chapter"
"Effect of a mucolytic agent on collagen fibres: An optical and polarized light histological study","European Journal of Orthopaedic Surgery & Traumatology","","11","4","10.1007/BF01686890","V. DenaroF. ForriolA. Di MartinoL. DenaroR. PapaliaG. Caione","2001","http://link.springer.com/article/10.1007/BF01686890","Article"
"World Trade League as a Standard Problem for Multi-agent Economics — Concept and Background","New Frontiers in Artificial Intelligence","","","","10.1007/3-540-45548-5_23","Koichi KurumataniAzuma Ohuchi","2001","http://link.springer.com/chapter/10.1007/3-540-45548-5_23","Chapter"
"Agent Design for LCC Information Gathering","Global Engineering, Manufacturing and Enterprise Networks","","","","10.1007/978-0-387-35412-5_37","T. I. ZhangH. C. JiangE. A. Kendall","2001","http://link.springer.com/chapter/10.1007/978-0-387-35412-5_37","Chapter"
"Coordinating Agents using Agent Communication Languages Conversations","Coordination of Internet Agents","","","","10.1007/978-3-662-04401-8_7","R. Scott CostYannis LabrouTim Finin","2001","http://link.springer.com/chapter/10.1007/978-3-662-04401-8_7","Chapter"
"The Potential of Different Biotechnology Methods in BTW Agent Detection","The Role of Biotechnology in Countering BTW Agents","","","","10.1007/978-94-010-0775-7_7","Peter Sveshnikov","2001","http://link.springer.com/chapter/10.1007/978-94-010-0775-7_7","Chapter"
"Standardizing Agent Communication","Multi-Agent Systems and Applications","","","","10.1007/3-540-47745-4_4","Yannis Labrou","2001","http://link.springer.com/chapter/10.1007/3-540-47745-4_4","Chapter"
"J-SEAL2—A Secure High-Performance Mobile Agent System","Electronic Commerce Research","","1","1 - 2","10.1023/A:1011579730296","Walter Binder","2001","http://link.springer.com/article/10.1023/A%3A1011579730296","Article"
"Trends of internet auctions and agent-mediated Web commerce","New Generation Computing","","19","4","10.1007/BF03037574","Makoto YokooSatoru Fujita","2001","http://link.springer.com/article/10.1007/BF03037574","Article"
"Towards Distributed Workflow Enactment with Itineraries and Mobile Agent Management","E-Commerce Agents","","","","10.1007/3-540-45370-9_17","Seng Wai LokeArkady Zaslavsky","2001","http://link.springer.com/chapter/10.1007/3-540-45370-9_17","Chapter"
"Towards a methodology for formal design and analysis of agent interaction protocols","Wuhan University Journal of Natural Sciences","","6","1 - 2","10.1007/BF03160233","Wei JunCheung Shing-ChiWang Xu","2001","http://link.springer.com/article/10.1007/BF03160233","Article"
"Mobile Agent Route Protection through Hash-Based Mechanisms","Progress in Cryptology — INDOCRYPT 2001","","","","10.1007/3-540-45311-3_2","Josep Domingo-Ferrer","2001","http://link.springer.com/chapter/10.1007/3-540-45311-3_2","Chapter"
"On the Robustness of Some Cryptographic Protocols for Mobile Agent Protection","Mobile Agents","","","","10.1007/3-540-45647-3_1","Volker Roth","2001","http://link.springer.com/chapter/10.1007/3-540-45647-3_1","Chapter"
"Reusable Patterns for Agent Coordination","Coordination of Internet Agents","","","","10.1007/978-3-662-04401-8_14","Dwight DeugoMichael WeissElizabeth Kendall","2001","http://link.springer.com/chapter/10.1007/978-3-662-04401-8_14","Chapter"
"Agent-Mediated Secure Electronic Transaction for Online Interdependent Purchases","E-Commerce Agents","","","","10.1007/3-540-45370-9_14","Xun YiChee Kheong SiewYuan Miao","2001","http://link.springer.com/chapter/10.1007/3-540-45370-9_14","Chapter"
"A Framework for Multi-Agent Belief Revision","Studia Logica","","67","2","10.1023/A:1010555305483","Wei LiuMary-Anne Williams","2001","http://link.springer.com/article/10.1023/A%3A1010555305483","Article"
"The Hunt for the Ideal Thrombolytic Agent: Mutants of tPA and uPA, Chimera of Both Molecules, Fibrolase","Fibrinolytics and Antifibrinolytics","","","","10.1007/978-3-642-56637-0_19","M. Verstraete","2001","http://link.springer.com/chapter/10.1007/978-3-642-56637-0_19","Chapter"
"Falling Leaves and Ethical Dilemmas: Agent Orange in Vietnam","New Dimensions in Bioethics","","","","10.1007/978-1-4615-1591-3_7","Arthur W. Galston","2001","http://link.springer.com/chapter/10.1007/978-1-4615-1591-3_7","Chapter"
"Agent Coordination Infrastructures for Virtual Enterprises and Workflow Management","Cooperative Information Agents V","","","","10.1007/3-540-44799-7_26","Alessandro RicciEnrico DentiAndrea Omicini","2001","http://link.springer.com/chapter/10.1007/3-540-44799-7_26","Chapter"
"Formal Specification of Agent Behaviour through Environment Scenarios","Formal Approaches to Agent-Based Systems","","","","10.1007/3-540-45484-5_21","Hong Zhu","2001","http://link.springer.com/chapter/10.1007/3-540-45484-5_21","Chapter"
"Agent orientation as a modelling paradigm","Wirtschaftsinformatik","","43","2","10.1007/BF03250789","Dr. Eric Yu","2001","http://link.springer.com/article/10.1007/BF03250789","Article"
"ANKON: A Multi-agent System for Information Gathering","Database and Expert Systems Applications","","","","10.1007/3-540-44759-8_60","Claudia DiamantiniMaurizio Panti","2001","http://link.springer.com/chapter/10.1007/3-540-44759-8_60","Chapter"
"Argumentation as Distributed Belief Revision: Conflict Resolution in Decentralised Co-operative Multi-agent Systems","Progress in Artificial Intelligence","","","","10.1007/3-540-45329-6_22","Benedita MalheiroEugénio Oliveira","2001","http://link.springer.com/chapter/10.1007/3-540-45329-6_22","Chapter"
"Performance Evaluation of Mobile-Agent Middleware: A Hierarchical Approach","Mobile Agents","","","","10.1007/3-540-45647-3_17","Marios DikaiakosMelinos KyriakouGeorge Samaras","2001","http://link.springer.com/chapter/10.1007/3-540-45647-3_17","Chapter"
"Developing Agent-Oriented Information Systems for the Enterprise","Enterprise Information Systems II","","","","10.1007/978-94-017-1427-3_2","Jaelson CastroManuel KolpJohn Mylopoulos","2001","http://link.springer.com/chapter/10.1007/978-94-017-1427-3_2","Chapter"
"Agent Identification and Preclinical Testing","Cancer Chemoprevention","","","","10.1007/978-1-4615-1657-6_1","James A. Crowell Ph.D.Cathy J. Holmes Ph.D.","2001","http://link.springer.com/chapter/10.1007/978-1-4615-1657-6_1","Chapter"
"Agent-Oriented Modeling with Graph Transformation","Agent-Oriented Software Engineering","","","","10.1007/3-540-44564-1_7","Ralph DepkeReiko HeckelJochen Malte Küster","2001","http://link.springer.com/chapter/10.1007/3-540-44564-1_7","Chapter"
"Oxaliplatin: A new agent for colorectal cancer","Current Oncology Reports","","3","2","10.1007/s11912-001-0015-6","Robert J. Pelley MD","2001","http://link.springer.com/article/10.1007/s11912-001-0015-6","Article"
"Continuous Presence in Collaborative Virtual Environments: Towards a Hybrid Avatar-Agent Model for User Representation","Intelligent Virtual Agents","","","","10.1007/3-540-44812-8_12","M. GerhardD. J. MooreD. J. Hobbs","2001","http://link.springer.com/chapter/10.1007/3-540-44812-8_12","Chapter"
"Mediated Agent Interaction","Artificial Intelligence in Medicine","","","","10.1007/3-540-48229-6_1","Enrico Coiera","2001","http://link.springer.com/chapter/10.1007/3-540-48229-6_1","Chapter"
"A Uniform Internet-Communicative Agent","Electronic Commerce Research","","1","1 - 2","10.1023/A:1011523023246","Matjaz Gams","2001","http://link.springer.com/article/10.1023/A%3A1011523023246","Article"